# 3ds Max Wavefront OBJ Exporter v0.97b - (c)2007 guruware
# File Created: 28.04.2020 17:11:04

newmtl Material__28
	Ns 10.0000
	Ni 1.5000
	d 1.0000
	Tr 0.0000
	Tf 1.0000 1.0000 1.0000 
	illum 2
	Ka 0.0039 0.0039 0.0039
	Kd 0.0039 0.0039 0.0039
	Ks 0.0000 0.0000 0.0000
	Ke 0.0000 0.0000 0.0000
	map_Ka pantalon_charly.jpg
	map_Kd pantalon_charly.jpg
