# 3ds Max Wavefront OBJ Exporter v0.97b - (c)2007 guruware
# File Created: 28.04.2020 17:14:07

newmtl Material__30
	Ns 10.0000
	Ni 1.5000
	d 1.0000
	Tr 0.0000
	Tf 1.0000 1.0000 1.0000 
	illum 2
	Ka 0.7882 0.5843 0.0118
	Kd 0.7882 0.5843 0.0118
	Ks 0.0000 0.0000 0.0000
	Ke 0.0000 0.0000 0.0000
	map_Ka azul1_tren.jpg
	map_Kd azul1_tren.jpg
