# 3ds Max Wavefront OBJ Exporter v0.97b - (c)2007 guruware
# File Created: 07.05.2020 01:37:57

mtllib base_columpio.mtl

#
# object Piece008
#

v  -3048.0000 -3403.5999 1270.0000
v  -2946.3999 -3403.5999 1168.4004
v  -2641.6001 -3403.5999 1168.4004
v  -2540.0000 -3403.5999 1270.0000
v  -2540.0000 -3403.5999 -1270.0000
v  -2641.6001 -3403.5999 -1168.3994
v  -2946.3999 -3403.5999 -1168.3994
v  -3048.0000 -3403.5999 -1270.0000
v  -2946.3999 -2895.5999 762.0000
v  -2641.6001 -2895.5999 762.0000
v  -2641.6001 -2934.2585 917.5293
v  -2946.3999 -2934.2585 917.5293
v  -2641.6001 -3044.3931 1049.3652
v  -2946.3999 -3044.3931 1049.3652
v  -2641.6001 -3209.1882 1137.4736
v  -2946.3999 -3209.1882 1137.4736
v  -2641.6001 -2934.2585 -917.5293
v  -2641.6001 -2895.5999 -762.0000
v  -2946.3999 -2895.5999 -762.0000
v  -2946.3999 -2934.2585 -917.5293
v  -2641.6001 -3044.3931 -1049.3652
v  -2946.3999 -3044.3931 -1049.3652
v  -2641.6001 -3209.1882 -1137.4727
v  -2946.3999 -3209.1882 -1137.4727
v  -2641.6001 -3301.9998 203.2002
v  -2641.6001 -3301.9998 304.7998
v  -2946.3999 -3301.9998 304.7998
v  -2946.3999 -3301.9998 203.2002
v  -2641.6001 -2895.5999 203.2002
v  -2946.3999 -2895.5999 203.2002
v  -2946.3999 -2895.5999 304.7998
v  -2641.6001 -2895.5999 304.7998
v  -2641.6001 -3301.9998 -304.7998
v  -2641.6001 -3301.9998 -203.2002
v  -2946.3999 -3301.9998 -203.2002
v  -2946.3999 -3301.9998 -304.7998
v  -2641.6001 -2895.5999 -304.7998
v  -2946.3999 -2895.5999 -304.7998
v  -2946.3999 -2895.5999 -203.2002
v  -2641.6001 -2895.5999 -203.2002
v  -2700.1318 -3403.5999 723.1182
v  -2692.3999 -3403.5999 762.0000
v  -2794.0000 -3403.5999 762.0000
v  -2722.1587 -3403.5999 690.1592
v  -2755.1182 -3403.5999 668.1318
v  -2794.0000 -3403.5999 660.4004
v  -2832.8823 -3403.5999 668.1318
v  -2865.8413 -3403.5999 690.1592
v  -2887.8682 -3403.5999 723.1182
v  -2895.6001 -3403.5999 762.0000
v  -2887.8682 -3403.5999 800.8818
v  -2865.8413 -3403.5999 833.8418
v  -2832.8823 -3403.5999 855.8682
v  -2794.0000 -3403.5999 863.6006
v  -2755.1182 -3403.5999 855.8682
v  -2722.1587 -3403.5999 833.8418
v  -2700.1318 -3403.5999 800.8818
v  -2692.3999 -2895.5999 762.0000
v  -2700.1318 -2895.5999 723.1182
v  -2722.1587 -2895.5999 690.1592
v  -2755.1182 -2895.5999 668.1318
v  -2794.0000 -2895.5999 660.4004
v  -2832.8823 -2895.5999 668.1318
v  -2865.8413 -2895.5999 690.1592
v  -2887.8682 -2895.5999 723.1182
v  -2895.6001 -2895.5999 762.0000
v  -2887.8682 -2895.5999 800.8818
v  -2865.8413 -2895.5999 833.8418
v  -2832.8823 -2895.5999 855.8682
v  -2794.0000 -2895.5999 863.6006
v  -2755.1182 -2895.5999 855.8682
v  -2722.1587 -2895.5999 833.8418
v  -2700.1318 -2895.5999 800.8818
v  -2700.1318 -3403.5999 -800.8818
v  -2692.3999 -3403.5999 -762.0000
v  -2794.0000 -3403.5999 -762.0000
v  -2722.1587 -3403.5999 -833.8408
v  -2755.1182 -3403.5999 -855.8682
v  -2794.0000 -3403.5999 -863.5996
v  -2832.8823 -3403.5999 -855.8682
v  -2865.8413 -3403.5999 -833.8408
v  -2887.8682 -3403.5999 -800.8818
v  -2895.6001 -3403.5999 -762.0000
v  -2887.8682 -3403.5999 -723.1182
v  -2865.8413 -3403.5999 -690.1582
v  -2832.8823 -3403.5999 -668.1318
v  -2794.0000 -3403.5999 -660.3994
v  -2755.1182 -3403.5999 -668.1318
v  -2722.1587 -3403.5999 -690.1582
v  -2700.1318 -3403.5999 -723.1182
v  -2692.3999 -2895.5999 -762.0000
v  -2700.1318 -2895.5999 -800.8818
v  -2722.1587 -2895.5999 -833.8408
v  -2755.1182 -2895.5999 -855.8682
v  -2794.0000 -2895.5999 -863.5996
v  -2832.8823 -2895.5999 -855.8682
v  -2865.8413 -2895.5999 -833.8408
v  -2887.8682 -2895.5999 -800.8818
v  -2895.6001 -2895.5999 -762.0000
v  -2887.8682 -2895.5999 -723.1182
v  -2865.8413 -2895.5999 -690.1582
v  -2832.8823 -2895.5999 -668.1318
v  -2794.0000 -2895.5999 -660.3994
v  -2755.1182 -2895.5999 -668.1318
v  -2722.1587 -2895.5999 -690.1582
v  -2700.1318 -2895.5999 -723.1182
v  -2540.0000 -2840.3904 956.4111
v  -2540.0000 -2794.0000 762.0000
v  -3048.0000 -2794.0000 762.0000
v  -3048.0000 -2840.3904 956.4111
v  -2540.0000 -2972.5518 1121.2070
v  -3048.0000 -2972.5518 1121.2070
v  -2540.0000 -3170.3059 1231.3408
v  -3048.0000 -3170.3059 1231.3408
v  -3048.0000 -2794.0000 -762.0000
v  -2540.0000 -2794.0000 -762.0000
v  -2540.0000 -2840.3904 -956.4111
v  -3048.0000 -2840.3904 -956.4111
v  -2540.0000 -2972.5518 -1121.2070
v  -3048.0000 -2972.5518 -1121.2070
v  -2540.0000 -3170.3059 -1231.3408
v  -3048.0000 -3170.3059 -1231.3408
v  -2540.0000 -2794.0000 -508.0000
v  -2540.0000 -2794.0000 -254.0000
v  -2540.0000 -2794.0000 254.0000
v  -2540.0000 -2794.0000 508.0000
v  -2540.0000 -2540.0000 -152.3994
v  -2540.0000 -2540.0000 -254.0000
v  -2540.0000 -2540.0000 152.4004
v  -2540.0000 -2540.0000 254.0000
v  -3048.0000 -2794.0000 -508.0000
v  -3048.0000 -2794.0000 -254.0000
v  -3048.0000 -2794.0000 254.0000
v  -3048.0000 -2794.0000 508.0000
v  -3048.0000 -2540.0000 254.0000
v  -3048.0000 -2540.0000 -254.0000
v  -2540.0000 -2774.6704 410.7949
v  -3048.0000 -2774.6704 410.7949
v  -2540.0000 -2719.6033 328.3975
v  -3048.0000 -2719.6033 328.3975
v  -2540.0000 -2637.2056 273.3291
v  -3048.0000 -2637.2056 273.3291
v  -2540.0000 -2774.6704 -410.7939
v  -3048.0000 -2774.6704 -410.7939
v  -2540.0000 -2719.6033 -328.3965
v  -3048.0000 -2719.6033 -328.3965
v  -2540.0000 -2637.2056 -273.3291
v  -3048.0000 -2637.2056 -273.3291
v  -3048.0000 2082.8000 -254.0000
v  -3048.0000 2082.8000 254.0000
v  -2540.0000 2082.8000 -254.0000
v  -2540.0000 2082.8000 254.0000
v  -2946.3999 -2540.0000 152.4004
v  -2946.3999 -2540.0000 -152.3994
v  -2946.3999 2082.8000 -152.3994
v  -2946.3999 2082.8000 152.4004
v  -2540.0000 2082.8000 152.4004
v  -2540.0000 2082.8000 -152.3994
v  -3030.5249 2321.4583 254.0000
v  -3030.5249 2321.4583 -254.0000
v  -2978.7090 2556.0935 254.0000
v  -2978.7090 2556.0935 -254.0000
v  -2893.3647 2782.6819 254.0000
v  -2893.3647 2782.6819 -254.0000
v  -2775.7119 2997.2000 254.0000
v  -2775.7119 2997.2000 -254.0000
v  -2628.1890 3196.1731 254.0000
v  -2628.1890 3196.1731 -254.0000
v  -2452.8271 3375.9446 254.0000
v  -2452.8271 3375.9446 -254.0000
v  -2253.0815 3533.7698 254.0000
v  -2253.0815 3533.7698 -254.0000
v  -2032.0000 3666.5408 254.0000
v  -2032.0000 3666.5408 -254.0000
v  -1793.6465 3772.4285 254.0000
v  -1793.6465 3772.4285 -254.0000
v  -1541.8818 3849.2380 254.0000
v  -1541.8818 3849.2380 -254.0000
v  -1281.1763 3895.8723 254.0000
v  -1281.1763 3895.8723 -254.0000
v  -1016.0000 3911.5999 254.0000
v  -1016.0000 3911.5999 -254.0000
v  -2526.8940 2268.4231 -254.0000
v  -2526.8940 2268.4231 -152.3994
v  -2488.0317 2450.9172 -254.0000
v  -2488.0317 2450.9172 -152.3994
v  -2424.0239 2627.1526 -254.0000
v  -2424.0239 2627.1526 -152.3994
v  -2335.7837 2794.0002 -254.0000
v  -2335.7837 2794.0002 -152.3994
v  -2225.1416 2948.7571 -254.0000
v  -2225.1416 2948.7571 -152.3994
v  -2093.6201 3088.5789 -254.0000
v  -2093.6201 3088.5789 -152.3994
v  -1943.8110 3211.3318 -254.0000
v  -1943.8110 3211.3318 -152.3994
v  -1778.0000 3314.5984 -254.0000
v  -1778.0000 3314.5984 -152.3994
v  -1599.2349 3396.9553 -254.0000
v  -1599.2349 3396.9553 -152.3994
v  -1410.4111 3456.6960 -254.0000
v  -1410.4111 3456.6960 -152.3994
v  -1214.8823 3492.9675 -254.0000
v  -1214.8823 3492.9675 -152.3994
v  -1016.0000 3505.2000 -254.0000
v  -1016.0000 3505.2000 -152.3994
v  -2526.8940 2268.4231 152.4004
v  -2526.8940 2268.4231 254.0000
v  -2488.0317 2450.9172 152.4004
v  -2488.0317 2450.9172 254.0000
v  -2424.0239 2627.1526 152.4004
v  -2424.0239 2627.1526 254.0000
v  -2335.7837 2794.0002 152.4004
v  -2335.7837 2794.0002 254.0000
v  -2225.1416 2948.7571 152.4004
v  -2225.1416 2948.7571 254.0000
v  -2093.6201 3088.5789 152.4004
v  -2093.6201 3088.5789 254.0000
v  -1943.8110 3211.3318 152.4004
v  -1943.8110 3211.3318 254.0000
v  -1778.0000 3314.5984 152.4004
v  -1778.0000 3314.5984 254.0000
v  -1599.2349 3396.9553 152.4004
v  -1599.2349 3396.9553 254.0000
v  -1410.4111 3456.6960 152.4004
v  -1410.4111 3456.6960 254.0000
v  -1214.8823 3492.9675 152.4004
v  -1214.8823 3492.9675 254.0000
v  -1016.0000 3505.2000 152.4004
v  -1016.0000 3505.2000 254.0000
v  -2929.7988 2308.1995 -152.3994
v  -2929.7988 2308.1995 152.4004
v  -2880.5732 2529.7996 -152.3994
v  -2880.5732 2529.7996 152.4004
v  -2799.4966 2743.7996 -152.3994
v  -2799.4966 2743.7996 152.4004
v  -2687.7266 2946.4001 -152.3994
v  -2687.7266 2946.4001 152.4004
v  -2547.5796 3134.3196 -152.3994
v  -2547.5796 3134.3196 152.4004
v  -2380.9858 3304.1028 -152.3994
v  -2380.9858 3304.1028 152.4004
v  -2191.2275 3453.1604 -152.3994
v  -2191.2275 3453.1604 152.4004
v  -1981.2002 3578.5554 -152.3994
v  -1981.2002 3578.5554 152.4004
v  -1754.7642 3678.5598 -152.3994
v  -1754.7642 3678.5598 152.4004
v  -1515.5874 3751.1028 -152.3994
v  -1515.5874 3751.1028 152.4004
v  -1267.9175 3795.1458 -152.3994
v  -1267.9175 3795.1458 152.4004
v  -1016.0000 3810.0002 -152.3994
v  -1016.0000 3810.0002 152.4004
v  -2424.0234 2627.1526 -254.0000
v  -2253.0820 3533.7698 -254.0000
v  -1541.8813 3849.2380 -254.0000
v  -2424.0234 2627.1526 254.0000
v  -2253.0820 3533.7698 254.0000
v  -1541.8813 3849.2380 254.0000
v  -2424.0234 2627.1526 152.4004
v  -2424.0234 2627.1526 -152.3994
v  0.0000 3911.5999 -254.0000
v  0.0000 3911.5999 254.0000
v  0.0000 3505.2000 -254.0000
v  0.0000 3505.2000 254.0000
v  0.0000 3810.0002 -152.3994
v  0.0000 3810.0002 152.4004
v  0.0000 3505.2000 -152.3994
v  0.0000 3505.2000 152.4004
v  -152.3999 3911.5999 -0.0000
v  -152.3999 4013.2000 -0.0000
v  -160.1323 4013.2000 -38.8818
v  -160.1323 3911.5999 -38.8818
v  -182.1587 4013.2000 -71.8408
v  -182.1587 3911.5999 -71.8408
v  -215.1182 4013.2000 -93.8682
v  -215.1182 3911.5999 -93.8682
v  -254.0000 4013.2000 -101.5996
v  -254.0000 3911.5999 -101.5996
v  -292.8823 4013.2000 -93.8682
v  -292.8823 3911.5999 -93.8682
v  -325.8413 4013.2000 -71.8408
v  -325.8413 3911.5999 -71.8408
v  -347.8682 4013.2000 -38.8818
v  -347.8682 3911.5999 -38.8818
v  -355.6001 4013.2000 -0.0000
v  -355.6001 3911.5999 -0.0000
v  -347.8682 4013.2000 38.8818
v  -347.8682 3911.5999 38.8818
v  -325.8413 4013.2000 71.8418
v  -325.8413 3911.5999 71.8418
v  -292.8823 4013.2000 93.8682
v  -292.8823 3911.5999 93.8682
v  -254.0000 4013.2000 101.6006
v  -254.0000 3911.5999 101.6006
v  -215.1182 4013.2000 93.8682
v  -215.1182 3911.5999 93.8682
v  -182.1587 4013.2000 71.8418
v  -182.1587 3911.5999 71.8418
v  -160.1323 4013.2000 38.8818
v  -160.1323 3911.5999 38.8818
v  -113.1978 4013.2000 -58.3232
v  -101.6001 4013.2000 -0.0000
v  -101.6001 3911.5999 -0.0000
v  -113.1978 3911.5999 -58.3232
v  -146.2378 4013.2000 -107.7627
v  -146.2378 3911.5999 -107.7627
v  -195.6768 4013.2000 -140.8018
v  -195.6768 3911.5999 -140.8018
v  -254.0000 4013.2000 -152.3994
v  -254.0000 3911.5999 -152.3994
v  -312.3237 4013.2000 -140.8018
v  -312.3237 3911.5999 -140.8018
v  -361.7627 4013.2000 -107.7627
v  -361.7627 3911.5999 -107.7627
v  -394.8022 4013.2000 -58.3232
v  -394.8022 3911.5999 -58.3232
v  -406.3999 4013.2000 -0.0000
v  -406.3999 3911.5999 -0.0000
v  -394.8022 4013.2000 58.3242
v  -394.8022 3911.5999 58.3242
v  -361.7627 4013.2000 107.7627
v  -361.7627 3911.5999 107.7627
v  -312.3237 4013.2000 140.8027
v  -312.3237 3911.5999 140.8027
v  -254.0000 4013.2000 152.4004
v  -254.0000 3911.5999 152.4004
v  -195.6768 4013.2000 140.8027
v  -195.6768 3911.5999 140.8027
v  -146.2378 4013.2000 107.7627
v  -146.2378 3911.5999 107.7627
v  -113.1978 4013.2000 58.3242
v  -113.1978 3911.5999 58.3242
v  -660.3999 3911.5999 -0.0000
v  -660.3999 4013.2000 -0.0000
v  -668.1323 4013.2000 -38.8818
v  -668.1323 3911.5999 -38.8818
v  -690.1587 4013.2000 -71.8408
v  -690.1587 3911.5999 -71.8408
v  -723.1182 4013.2000 -93.8682
v  -723.1182 3911.5999 -93.8682
v  -762.0000 4013.2000 -101.5996
v  -762.0000 3911.5999 -101.5996
v  -800.8823 4013.2000 -93.8682
v  -800.8823 3911.5999 -93.8682
v  -833.8413 4013.2000 -71.8408
v  -833.8413 3911.5999 -71.8408
v  -855.8682 4013.2000 -38.8818
v  -855.8682 3911.5999 -38.8818
v  -863.6001 4013.2000 -0.0000
v  -863.6001 3911.5999 -0.0000
v  -855.8682 4013.2000 38.8818
v  -855.8682 3911.5999 38.8818
v  -833.8413 4013.2000 71.8418
v  -833.8413 3911.5999 71.8418
v  -800.8823 4013.2000 93.8682
v  -800.8823 3911.5999 93.8682
v  -762.0000 4013.2000 101.6006
v  -762.0000 3911.5999 101.6006
v  -723.1182 4013.2000 93.8682
v  -723.1182 3911.5999 93.8682
v  -690.1587 4013.2000 71.8418
v  -690.1587 3911.5999 71.8418
v  -668.1323 4013.2000 38.8818
v  -668.1323 3911.5999 38.8818
v  -621.1978 4013.2000 -58.3232
v  -609.6001 4013.2000 -0.0000
v  -609.6001 3911.5999 -0.0000
v  -621.1978 3911.5999 -58.3232
v  -654.2378 4013.2000 -107.7627
v  -654.2378 3911.5999 -107.7627
v  -703.6768 4013.2000 -140.8018
v  -703.6768 3911.5999 -140.8018
v  -762.0000 4013.2000 -152.3994
v  -762.0000 3911.5999 -152.3994
v  -820.3237 4013.2000 -140.8018
v  -820.3237 3911.5999 -140.8018
v  -869.7622 4013.2000 -107.7627
v  -869.7622 3911.5999 -107.7627
v  -902.8022 4013.2000 -58.3232
v  -902.8022 3911.5999 -58.3232
v  -914.3999 4013.2000 -0.0000
v  -914.3999 3911.5999 -0.0000
v  -902.8022 4013.2000 58.3242
v  -902.8022 3911.5999 58.3242
v  -869.7622 4013.2000 107.7627
v  -869.7622 3911.5999 107.7627
v  -820.3237 4013.2000 140.8027
v  -820.3237 3911.5999 140.8027
v  -762.0000 4013.2000 152.4004
v  -762.0000 3911.5999 152.4004
v  -703.6768 4013.2000 140.8027
v  -703.6768 3911.5999 140.8027
v  -654.2378 4013.2000 107.7627
v  -654.2378 3911.5999 107.7627
v  -621.1978 4013.2000 58.3242
v  -621.1978 3911.5999 58.3242
v  -406.3999 3505.2000 -50.7998
v  -406.3999 3505.2000 50.7998
v  -2104.0645 3505.2000 50.7998
v  -2104.0645 3505.2000 -50.7998
v  -406.3999 3810.0002 -50.7998
v  -406.3999 3810.0002 50.7998
v  -1515.5874 3751.1028 -50.7998
v  -1267.9175 3795.1458 -50.7998
v  -1016.0000 3810.0002 -50.7998
v  -1981.2002 3578.5554 -50.7998
v  -1754.7642 3678.5598 -50.7998
v  -1016.0000 3810.0002 50.7998
v  -1267.9175 3795.1458 50.7998
v  -1515.5874 3751.1028 50.7998
v  -1981.2002 3578.5554 50.7998
v  -1754.7642 3678.5598 50.7998
v  -2946.3999 2450.3176 93.8682
v  -2946.3999 2489.2000 101.6006
v  -1955.8003 2489.2000 101.6006
v  -1955.8003 2450.3176 93.8682
v  -2946.3999 2417.3586 71.8418
v  -1955.8003 2417.3586 71.8418
v  -2946.3999 2395.3318 38.8818
v  -1955.8003 2395.3318 38.8818
v  -2946.3999 2387.5999 -0.0000
v  -1955.8003 2387.5999 -0.0000
v  -2946.3999 2395.3318 -38.8818
v  -1955.8003 2395.3318 -38.8818
v  -2946.3999 2417.3586 -71.8408
v  -1955.8003 2417.3586 -71.8408
v  -2946.3999 2450.3176 -93.8682
v  -1955.8003 2450.3176 -93.8682
v  -2946.3999 2489.2000 -101.5996
v  -1955.8003 2489.2000 -101.5996
v  -1955.8003 2489.2000 203.2002
v  -2946.3999 2489.2000 203.2002
v  -2946.3999 2411.4353 187.7363
v  -1955.8003 2411.4353 187.7363
v  -2946.3999 2345.5173 143.6826
v  -1955.8003 2345.5173 143.6826
v  -2946.3999 2301.4636 77.7656
v  -1955.8003 2301.4636 77.7656
v  -2946.3999 2286.0002 -0.0000
v  -1955.8003 2286.0002 -0.0000
v  -2946.3999 2301.4636 -77.7646
v  -1955.8003 2301.4636 -77.7646
v  -2946.3999 2345.5173 -143.6826
v  -1955.8003 2345.5173 -143.6826
v  -2946.3999 2411.4353 -187.7363
v  -1955.8003 2411.4353 -187.7363
v  -2946.3999 2489.2000 -203.2002
v  -1955.8003 2489.2000 -203.2002
v  -2946.3999 2508.6414 -105.4658
v  -1955.8003 2508.6414 -105.4658
v  -2946.3999 2525.1208 -116.4795
v  -1955.8003 2525.1208 -116.4795
v  -2946.3999 2536.1340 -132.9580
v  -1955.8003 2536.1340 -132.9580
v  -2946.3999 2540.0002 -152.3994
v  -1955.8003 2540.0002 -152.3994
v  -2946.3999 2536.1340 -171.8408
v  -1955.8003 2536.1340 -171.8408
v  -2946.3999 2525.1208 -188.3203
v  -1955.8003 2525.1208 -188.3203
v  -2946.3999 2508.6414 -199.3340
v  -1955.8003 2508.6414 -199.3340
v  -2946.3999 2508.6414 199.3350
v  -1955.8003 2508.6414 199.3350
v  -2946.3999 2525.1208 188.3203
v  -1955.8003 2525.1208 188.3203
v  -2946.3999 2536.1340 171.8418
v  -1955.8003 2536.1340 171.8418
v  -2946.3999 2540.0002 152.4004
v  -1955.8003 2540.0002 152.4004
v  -2946.3999 2536.1340 132.9590
v  -1955.8003 2536.1340 132.9590
v  -2946.3999 2525.1208 116.4795
v  -1955.8003 2525.1208 116.4795
v  -2946.3999 2508.6414 105.4658
v  -1955.8003 2508.6414 105.4658
v  -1955.8003 2489.2000 -152.3994
v  -1955.8003 2489.2000 152.4004
v  3048.0000 -3403.5999 -1270.0000
v  2946.3994 -3403.5999 -1168.3994
v  2641.5996 -3403.5999 -1168.3994
v  2540.0000 -3403.5999 -1270.0000
v  2540.0000 -3403.5999 1270.0000
v  2641.5996 -3403.5999 1168.4004
v  2946.3994 -3403.5999 1168.4004
v  3048.0000 -3403.5999 1270.0000
v  2946.3994 -2895.5999 -762.0000
v  2641.5996 -2895.5999 -762.0000
v  2641.5996 -2934.2585 -917.5293
v  2946.3994 -2934.2585 -917.5293
v  2641.5996 -3044.3931 -1049.3652
v  2946.3994 -3044.3931 -1049.3652
v  2641.5996 -3209.1882 -1137.4727
v  2946.3994 -3209.1882 -1137.4727
v  2641.5996 -2934.2585 917.5293
v  2641.5996 -2895.5999 762.0000
v  2946.3994 -2895.5999 762.0000
v  2946.3994 -2934.2585 917.5293
v  2641.5996 -3044.3931 1049.3652
v  2946.3994 -3044.3931 1049.3652
v  2641.5996 -3209.1882 1137.4736
v  2946.3994 -3209.1882 1137.4736
v  2641.5996 -3301.9998 -203.2002
v  2641.5996 -3301.9998 -304.7998
v  2946.3994 -3301.9998 -304.7998
v  2946.3994 -3301.9998 -203.2002
v  2641.5996 -2895.5999 -203.2002
v  2946.3994 -2895.5999 -203.2002
v  2946.3994 -2895.5999 -304.7998
v  2641.5996 -2895.5999 -304.7998
v  2641.5996 -3301.9998 304.7998
v  2641.5996 -3301.9998 203.2002
v  2946.3994 -3301.9998 203.2002
v  2946.3994 -3301.9998 304.7998
v  2641.5996 -2895.5999 304.7998
v  2946.3994 -2895.5999 304.7998
v  2946.3994 -2895.5999 203.2002
v  2641.5996 -2895.5999 203.2002
v  2700.1309 -3403.5999 -723.1182
v  2692.3994 -3403.5999 -762.0000
v  2794.0000 -3403.5999 -762.0000
v  2722.1582 -3403.5999 -690.1582
v  2755.1182 -3403.5999 -668.1318
v  2794.0000 -3403.5999 -660.3994
v  2832.8818 -3403.5999 -668.1318
v  2865.8408 -3403.5999 -690.1582
v  2887.8682 -3403.5999 -723.1182
v  2895.5996 -3403.5999 -762.0000
v  2887.8682 -3403.5999 -800.8818
v  2865.8408 -3403.5999 -833.8408
v  2832.8818 -3403.5999 -855.8682
v  2794.0000 -3403.5999 -863.5996
v  2755.1182 -3403.5999 -855.8682
v  2722.1582 -3403.5999 -833.8408
v  2700.1309 -3403.5999 -800.8818
v  2692.3994 -2895.5999 -762.0000
v  2700.1309 -2895.5999 -723.1182
v  2722.1582 -2895.5999 -690.1582
v  2755.1182 -2895.5999 -668.1318
v  2794.0000 -2895.5999 -660.3994
v  2832.8818 -2895.5999 -668.1318
v  2865.8408 -2895.5999 -690.1582
v  2887.8682 -2895.5999 -723.1182
v  2895.5996 -2895.5999 -762.0000
v  2887.8682 -2895.5999 -800.8818
v  2865.8408 -2895.5999 -833.8408
v  2832.8818 -2895.5999 -855.8682
v  2794.0000 -2895.5999 -863.5996
v  2755.1182 -2895.5999 -855.8682
v  2722.1582 -2895.5999 -833.8408
v  2700.1309 -2895.5999 -800.8818
v  2700.1309 -3403.5999 800.8818
v  2692.3994 -3403.5999 762.0000
v  2794.0000 -3403.5999 762.0000
v  2722.1582 -3403.5999 833.8418
v  2755.1182 -3403.5999 855.8682
v  2794.0000 -3403.5999 863.6006
v  2832.8818 -3403.5999 855.8682
v  2865.8408 -3403.5999 833.8418
v  2887.8682 -3403.5999 800.8818
v  2895.5996 -3403.5999 762.0000
v  2887.8682 -3403.5999 723.1182
v  2865.8408 -3403.5999 690.1592
v  2832.8818 -3403.5999 668.1318
v  2794.0000 -3403.5999 660.4004
v  2755.1182 -3403.5999 668.1318
v  2722.1582 -3403.5999 690.1592
v  2700.1309 -3403.5999 723.1182
v  2692.3994 -2895.5999 762.0000
v  2700.1309 -2895.5999 800.8818
v  2722.1582 -2895.5999 833.8418
v  2755.1182 -2895.5999 855.8682
v  2794.0000 -2895.5999 863.6006
v  2832.8818 -2895.5999 855.8682
v  2865.8408 -2895.5999 833.8418
v  2887.8682 -2895.5999 800.8818
v  2895.5996 -2895.5999 762.0000
v  2887.8682 -2895.5999 723.1182
v  2865.8408 -2895.5999 690.1592
v  2832.8818 -2895.5999 668.1318
v  2794.0000 -2895.5999 660.4004
v  2755.1182 -2895.5999 668.1318
v  2722.1582 -2895.5999 690.1592
v  2700.1309 -2895.5999 723.1182
v  2540.0000 -2840.3904 -956.4111
v  2540.0000 -2794.0000 -762.0000
v  3048.0000 -2794.0000 -762.0000
v  3048.0000 -2840.3904 -956.4111
v  2540.0000 -2972.5518 -1121.2070
v  3048.0000 -2972.5518 -1121.2070
v  2540.0000 -3170.3059 -1231.3408
v  3048.0000 -3170.3059 -1231.3408
v  3048.0000 -2794.0000 762.0000
v  2540.0000 -2794.0000 762.0000
v  2540.0000 -2840.3904 956.4111
v  3048.0000 -2840.3904 956.4111
v  2540.0000 -2972.5518 1121.2070
v  3048.0000 -2972.5518 1121.2070
v  2540.0000 -3170.3059 1231.3408
v  3048.0000 -3170.3059 1231.3408
v  2540.0000 -2794.0000 508.0000
v  2540.0000 -2794.0000 254.0000
v  2540.0000 -2794.0000 -254.0000
v  2540.0000 -2794.0000 -508.0000
v  2540.0000 -2540.0000 152.4004
v  2540.0000 -2540.0000 254.0000
v  2540.0000 -2540.0000 -152.3994
v  2540.0000 -2540.0000 -254.0000
v  3048.0000 -2794.0000 508.0000
v  3048.0000 -2794.0000 254.0000
v  3048.0000 -2794.0000 -254.0000
v  3048.0000 -2794.0000 -508.0000
v  3048.0000 -2540.0000 -254.0000
v  3048.0000 -2540.0000 254.0000
v  2540.0000 -2774.6704 -410.7939
v  3048.0000 -2774.6704 -410.7939
v  2540.0000 -2719.6033 -328.3965
v  3048.0000 -2719.6033 -328.3965
v  2540.0000 -2637.2056 -273.3291
v  3048.0000 -2637.2056 -273.3291
v  2540.0000 -2774.6704 410.7949
v  3048.0000 -2774.6704 410.7949
v  2540.0000 -2719.6033 328.3975
v  3048.0000 -2719.6033 328.3975
v  2540.0000 -2637.2056 273.3291
v  3048.0000 -2637.2056 273.3291
v  3048.0000 2082.8000 254.0000
v  3048.0000 2082.8000 -254.0000
v  2540.0000 2082.8000 254.0000
v  2540.0000 2082.8000 -254.0000
v  2946.3994 -2540.0000 -152.3994
v  2946.3994 -2540.0000 152.4004
v  2946.3994 2082.8000 152.4004
v  2946.3994 2082.8000 -152.3994
v  2540.0000 2082.8000 -152.3994
v  2540.0000 2082.8000 152.4004
v  3030.5254 2321.4583 -254.0000
v  3030.5254 2321.4583 254.0000
v  2978.7090 2556.0935 -254.0000
v  2978.7090 2556.0935 254.0000
v  2893.3643 2782.6819 -254.0000
v  2893.3643 2782.6819 254.0000
v  2775.7119 2997.2000 -254.0000
v  2775.7119 2997.2000 254.0000
v  2628.1885 3196.1731 -254.0000
v  2628.1885 3196.1731 254.0000
v  2452.8271 3375.9446 -254.0000
v  2452.8271 3375.9446 254.0000
v  2253.0811 3533.7698 -254.0000
v  2253.0811 3533.7698 254.0000
v  2032.0000 3666.5408 -254.0000
v  2032.0000 3666.5408 254.0000
v  1793.6465 3772.4285 -254.0000
v  1793.6465 3772.4285 254.0000
v  1541.8818 3849.2380 -254.0000
v  1541.8818 3849.2380 254.0000
v  1281.1758 3895.8723 -254.0000
v  1281.1758 3895.8723 254.0000
v  1016.0000 3911.5999 -254.0000
v  1016.0000 3911.5999 254.0000
v  2526.8936 2268.4231 254.0000
v  2526.8936 2268.4231 152.4004
v  2488.0313 2450.9172 254.0000
v  2488.0313 2450.9172 152.4004
v  2424.0244 2627.1526 254.0000
v  2424.0244 2627.1526 152.4004
v  2335.7832 2794.0002 254.0000
v  2335.7832 2794.0002 152.4004
v  2225.1416 2948.7571 254.0000
v  2225.1416 2948.7571 152.4004
v  2093.6201 3088.5789 254.0000
v  2093.6201 3088.5789 152.4004
v  1943.8115 3211.3318 254.0000
v  1943.8115 3211.3318 152.4004
v  1778.0000 3314.5984 254.0000
v  1778.0000 3314.5984 152.4004
v  1599.2344 3396.9553 254.0000
v  1599.2344 3396.9553 152.4004
v  1410.4111 3456.6960 254.0000
v  1410.4111 3456.6960 152.4004
v  1214.8818 3492.9675 254.0000
v  1214.8818 3492.9675 152.4004
v  1016.0000 3505.2000 254.0000
v  1016.0000 3505.2000 152.4004
v  2526.8936 2268.4231 -152.3994
v  2526.8936 2268.4231 -254.0000
v  2488.0313 2450.9172 -152.3994
v  2488.0313 2450.9172 -254.0000
v  2424.0244 2627.1526 -152.3994
v  2424.0244 2627.1526 -254.0000
v  2335.7832 2794.0002 -152.3994
v  2335.7832 2794.0002 -254.0000
v  2225.1416 2948.7571 -152.3994
v  2225.1416 2948.7571 -254.0000
v  2093.6201 3088.5789 -152.3994
v  2093.6201 3088.5789 -254.0000
v  1943.8115 3211.3318 -152.3994
v  1943.8115 3211.3318 -254.0000
v  1778.0000 3314.5984 -152.3994
v  1778.0000 3314.5984 -254.0000
v  1599.2344 3396.9553 -152.3994
v  1599.2344 3396.9553 -254.0000
v  1410.4111 3456.6960 -152.3994
v  1410.4111 3456.6960 -254.0000
v  1214.8818 3492.9675 -152.3994
v  1214.8818 3492.9675 -254.0000
v  1016.0000 3505.2000 -152.3994
v  1016.0000 3505.2000 -254.0000
v  2929.7988 2308.1995 152.4004
v  2929.7988 2308.1995 -152.3994
v  2880.5732 2529.7996 152.4004
v  2880.5732 2529.7996 -152.3994
v  2799.4961 2743.7996 152.4004
v  2799.4961 2743.7996 -152.3994
v  2687.7266 2946.4001 152.4004
v  2687.7266 2946.4001 -152.3994
v  2547.5791 3134.3196 152.4004
v  2547.5791 3134.3196 -152.3994
v  2380.9854 3304.1028 152.4004
v  2380.9854 3304.1028 -152.3994
v  2191.2275 3453.1604 152.4004
v  2191.2275 3453.1604 -152.3994
v  1981.2002 3578.5554 152.4004
v  1981.2002 3578.5554 -152.3994
v  1754.7637 3678.5598 152.4004
v  1754.7637 3678.5598 -152.3994
v  1515.5869 3751.1028 152.4004
v  1515.5869 3751.1028 -152.3994
v  1267.9170 3795.1458 152.4004
v  1267.9170 3795.1458 -152.3994
v  1016.0000 3810.0002 152.4004
v  1016.0000 3810.0002 -152.3994
v  2424.0234 2627.1526 254.0000
v  2253.0820 3533.7698 254.0000
v  2424.0234 2627.1526 -254.0000
v  2253.0820 3533.7698 -254.0000
v  2424.0234 2627.1526 -152.3994
v  2424.0234 2627.1526 152.4004
v  152.3999 3911.5999 -0.0000
v  152.3999 4013.2000 -0.0000
v  160.1318 4013.2000 38.8818
v  160.1318 3911.5999 38.8818
v  182.1587 4013.2000 71.8418
v  182.1587 3911.5999 71.8418
v  215.1177 4013.2000 93.8682
v  215.1177 3911.5999 93.8682
v  254.0000 4013.2000 101.6006
v  254.0000 3911.5999 101.6006
v  292.8818 4013.2000 93.8682
v  292.8818 3911.5999 93.8682
v  325.8413 4013.2000 71.8418
v  325.8413 3911.5999 71.8418
v  347.8677 4013.2000 38.8818
v  347.8677 3911.5999 38.8818
v  355.6001 4013.2000 -0.0000
v  355.6001 3911.5999 -0.0000
v  347.8677 4013.2000 -38.8818
v  347.8677 3911.5999 -38.8818
v  325.8413 4013.2000 -71.8408
v  325.8413 3911.5999 -71.8408
v  292.8818 4013.2000 -93.8682
v  292.8818 3911.5999 -93.8682
v  254.0000 4013.2000 -101.5996
v  254.0000 3911.5999 -101.5996
v  215.1177 4013.2000 -93.8682
v  215.1177 3911.5999 -93.8682
v  182.1587 4013.2000 -71.8408
v  182.1587 3911.5999 -71.8408
v  160.1318 4013.2000 -38.8818
v  160.1318 3911.5999 -38.8818
v  113.1978 4013.2000 58.3242
v  101.6001 4013.2000 -0.0000
v  101.6001 3911.5999 -0.0000
v  113.1978 3911.5999 58.3242
v  146.2373 4013.2000 107.7627
v  146.2373 3911.5999 107.7627
v  195.6763 4013.2000 140.8027
v  195.6763 3911.5999 140.8027
v  254.0000 4013.2000 152.4004
v  254.0000 3911.5999 152.4004
v  312.3232 4013.2000 140.8027
v  312.3232 3911.5999 140.8027
v  361.7622 4013.2000 107.7627
v  361.7622 3911.5999 107.7627
v  394.8022 4013.2000 58.3242
v  394.8022 3911.5999 58.3242
v  406.3999 4013.2000 -0.0000
v  406.3999 3911.5999 -0.0000
v  394.8022 4013.2000 -58.3232
v  394.8022 3911.5999 -58.3232
v  361.7622 4013.2000 -107.7627
v  361.7622 3911.5999 -107.7627
v  312.3232 4013.2000 -140.8018
v  312.3232 3911.5999 -140.8018
v  254.0000 4013.2000 -152.3994
v  254.0000 3911.5999 -152.3994
v  195.6763 4013.2000 -140.8018
v  195.6763 3911.5999 -140.8018
v  146.2373 4013.2000 -107.7627
v  146.2373 3911.5999 -107.7627
v  113.1978 4013.2000 -58.3232
v  113.1978 3911.5999 -58.3232
v  660.3999 3911.5999 -0.0000
v  660.3999 4013.2000 -0.0000
v  668.1318 4013.2000 38.8818
v  668.1318 3911.5999 38.8818
v  690.1587 4013.2000 71.8418
v  690.1587 3911.5999 71.8418
v  723.1177 4013.2000 93.8682
v  723.1177 3911.5999 93.8682
v  762.0000 4013.2000 101.6006
v  762.0000 3911.5999 101.6006
v  800.8818 4013.2000 93.8682
v  800.8818 3911.5999 93.8682
v  833.8408 4013.2000 71.8418
v  833.8408 3911.5999 71.8418
v  855.8682 4013.2000 38.8818
v  855.8682 3911.5999 38.8818
v  863.5996 4013.2000 -0.0000
v  863.5996 3911.5999 -0.0000
v  855.8682 4013.2000 -38.8818
v  855.8682 3911.5999 -38.8818
v  833.8408 4013.2000 -71.8408
v  833.8408 3911.5999 -71.8408
v  800.8818 4013.2000 -93.8682
v  800.8818 3911.5999 -93.8682
v  762.0000 4013.2000 -101.5996
v  762.0000 3911.5999 -101.5996
v  723.1177 4013.2000 -93.8682
v  723.1177 3911.5999 -93.8682
v  690.1587 4013.2000 -71.8408
v  690.1587 3911.5999 -71.8408
v  668.1318 4013.2000 -38.8818
v  668.1318 3911.5999 -38.8818
v  621.1978 4013.2000 58.3242
v  609.6001 4013.2000 -0.0000
v  609.6001 3911.5999 -0.0000
v  621.1978 3911.5999 58.3242
v  654.2373 4013.2000 107.7627
v  654.2373 3911.5999 107.7627
v  703.6763 4013.2000 140.8027
v  703.6763 3911.5999 140.8027
v  762.0000 4013.2000 152.4004
v  762.0000 3911.5999 152.4004
v  820.3232 4013.2000 140.8027
v  820.3232 3911.5999 140.8027
v  869.7627 4013.2000 107.7627
v  869.7627 3911.5999 107.7627
v  902.8018 4013.2000 58.3242
v  902.8018 3911.5999 58.3242
v  914.3994 4013.2000 -0.0000
v  914.3994 3911.5999 -0.0000
v  902.8018 4013.2000 -58.3232
v  902.8018 3911.5999 -58.3232
v  869.7627 4013.2000 -107.7627
v  869.7627 3911.5999 -107.7627
v  820.3232 4013.2000 -140.8018
v  820.3232 3911.5999 -140.8018
v  762.0000 4013.2000 -152.3994
v  762.0000 3911.5999 -152.3994
v  703.6763 4013.2000 -140.8018
v  703.6763 3911.5999 -140.8018
v  654.2373 4013.2000 -107.7627
v  654.2373 3911.5999 -107.7627
v  621.1978 4013.2000 -58.3232
v  621.1978 3911.5999 -58.3232
v  406.3999 3505.2000 50.7998
v  406.3999 3505.2000 -50.7998
v  2104.0645 3505.2000 -50.7998
v  2104.0645 3505.2000 50.7998
v  406.3999 3810.0002 50.7998
v  406.3999 3810.0002 -50.7998
v  1515.5869 3751.1028 50.7998
v  1267.9170 3795.1458 50.7998
v  1016.0000 3810.0002 50.7998
v  1981.2002 3578.5554 50.7998
v  1754.7637 3678.5598 50.7998
v  1016.0000 3810.0002 -50.7998
v  1267.9170 3795.1458 -50.7998
v  1515.5869 3751.1028 -50.7998
v  1981.2002 3578.5554 -50.7998
v  1754.7637 3678.5598 -50.7998
v  2946.3994 2450.3176 -93.8682
v  2946.3994 2489.2000 -101.5996
v  1955.7998 2489.2000 -101.5996
v  1955.7998 2450.3176 -93.8682
v  2946.3994 2417.3586 -71.8408
v  1955.7998 2417.3586 -71.8408
v  2946.3994 2395.3318 -38.8818
v  1955.7998 2395.3318 -38.8818
v  2946.3994 2387.5999 -0.0000
v  1955.7998 2387.5999 -0.0000
v  2946.3994 2395.3318 38.8818
v  1955.7998 2395.3318 38.8818
v  2946.3994 2417.3586 71.8418
v  1955.7998 2417.3586 71.8418
v  2946.3994 2450.3176 93.8682
v  1955.7998 2450.3176 93.8682
v  2946.3994 2489.2000 101.6006
v  1955.7998 2489.2000 101.6006
v  1955.7998 2489.2000 -203.2002
v  2946.3994 2489.2000 -203.2002
v  2946.3994 2411.4353 -187.7363
v  1955.7998 2411.4353 -187.7363
v  2946.3994 2345.5173 -143.6826
v  1955.7998 2345.5173 -143.6826
v  2946.3994 2301.4636 -77.7646
v  1955.7998 2301.4636 -77.7646
v  2946.3994 2286.0002 -0.0000
v  1955.7998 2286.0002 -0.0000
v  2946.3994 2301.4636 77.7656
v  1955.7998 2301.4636 77.7656
v  2946.3994 2345.5173 143.6826
v  1955.7998 2345.5173 143.6826
v  2946.3994 2411.4353 187.7363
v  1955.7998 2411.4353 187.7363
v  2946.3994 2489.2000 203.2002
v  1955.7998 2489.2000 203.2002
v  2946.3994 2508.6414 105.4658
v  1955.7998 2508.6414 105.4658
v  2946.3994 2525.1208 116.4795
v  1955.7998 2525.1208 116.4795
v  2946.3994 2536.1340 132.9590
v  1955.7998 2536.1340 132.9590
v  2946.3994 2540.0002 152.4004
v  1955.7998 2540.0002 152.4004
v  2946.3994 2536.1340 171.8418
v  1955.7998 2536.1340 171.8418
v  2946.3994 2525.1208 188.3203
v  1955.7998 2525.1208 188.3203
v  2946.3994 2508.6414 199.3350
v  1955.7998 2508.6414 199.3350
v  2946.3994 2508.6414 -199.3340
v  1955.7998 2508.6414 -199.3340
v  2946.3994 2525.1208 -188.3203
v  1955.7998 2525.1208 -188.3203
v  2946.3994 2536.1340 -171.8408
v  1955.7998 2536.1340 -171.8408
v  2946.3994 2540.0002 -152.3994
v  1955.7998 2540.0002 -152.3994
v  2946.3994 2536.1340 -132.9580
v  1955.7998 2536.1340 -132.9580
v  2946.3994 2525.1208 -116.4795
v  1955.7998 2525.1208 -116.4795
v  2946.3994 2508.6414 -105.4658
v  1955.7998 2508.6414 -105.4658
v  1955.7998 2489.2000 152.4004
v  1955.7998 2489.2000 -152.3994
# 950 vertices

vn 0.0000 -1.0000 -0.0000
vn 0.0000 -0.9705 -0.2412
vn 0.0000 -0.7674 -0.6411
vn 0.0000 -0.4715 -0.8819
vn 0.0000 -0.1571 -0.9876
vn 0.0000 -0.9705 0.2412
vn 0.0000 -0.7674 0.6411
vn 0.0000 -0.4715 0.8819
vn 0.0000 -0.1571 0.9876
vn -1.0000 0.0000 -0.0000
vn 1.0000 0.0000 -0.0000
vn 0.0000 0.0000 -1.0000
vn 0.0000 0.0000 1.0000
vn 0.9808 0.0000 -0.1950
vn 0.8314 0.0000 -0.5556
vn 0.5556 0.0000 -0.8314
vn 0.1950 0.0000 -0.9808
vn -0.1950 0.0000 -0.9808
vn -0.5557 0.0000 -0.8314
vn -0.8314 0.0000 -0.5556
vn -0.9808 0.0000 -0.1950
vn -0.9808 0.0000 0.1950
vn -0.8314 0.0000 0.5556
vn -0.5556 0.0000 0.8314
vn -0.1950 0.0000 0.9808
vn 0.1951 0.0000 0.9808
vn 0.5556 0.0000 0.8314
vn 0.8314 0.0000 0.5556
vn 0.9808 0.0000 0.1950
vn 0.0000 0.9727 0.2321
vn 0.0000 0.7801 0.6256
vn 0.0000 0.4866 0.8736
vn 0.0000 0.1635 0.9865
vn 0.0000 0.9727 -0.2321
vn 0.0000 0.7801 -0.6256
vn 0.0000 0.4866 -0.8736
vn 0.0000 0.1635 -0.9865
vn 0.0000 1.0000 -0.0000
vn 0.0000 0.9808 0.1950
vn 0.0000 0.8314 0.5556
vn 0.0000 0.5557 0.8314
vn 0.0000 0.1950 0.9808
vn 0.0000 0.9808 -0.1950
vn 0.0000 0.8314 -0.5556
vn 0.0000 0.5556 -0.8314
vn 0.0000 0.1950 -0.9808
vn -0.9973 0.0730 -0.0000
vn -0.9765 0.2156 -0.0000
vn -0.9358 0.3525 -0.0000
vn -0.8768 0.4809 -0.0000
vn -0.8033 0.5956 -0.0000
vn -0.7158 0.6983 -0.0000
vn -0.6200 0.7846 -0.0000
vn -0.5148 0.8573 -0.0000
vn -0.4060 0.9139 -0.0000
vn -0.2918 0.9565 -0.0000
vn -0.1761 0.9844 -0.0000
vn -0.0592 0.9982 -0.0000
vn 0.9975 -0.0704 -0.0000
vn 0.9781 -0.2083 -0.0000
vn 0.9399 -0.3414 -0.0000
vn 0.8840 -0.4675 -0.0000
vn 0.8135 -0.5816 -0.0000
vn 0.7284 -0.6852 -0.0000
vn 0.6338 -0.7735 -0.0000
vn 0.5287 -0.8488 -0.0000
vn 0.4184 -0.9082 -0.0000
vn 0.3016 -0.9534 -0.0000
vn 0.1824 -0.9832 -0.0000
vn 0.0614 -0.9981 -0.0000
vn 0.9973 -0.0735 -0.0000
vn 0.9762 -0.2169 -0.0000
vn 0.9351 -0.3543 -0.0000
vn 0.8756 -0.4830 -0.0000
vn 0.8016 -0.5978 -0.0000
vn 0.7138 -0.7004 -0.0000
vn 0.6177 -0.7864 -0.0000
vn 0.5126 -0.8586 -0.0000
vn 0.4040 -0.9148 -0.0000
vn 0.2902 -0.9570 -0.0000
vn 0.1751 -0.9846 -0.0000
vn 0.0589 -0.9983 -0.0000
vn -0.9808 0.0000 0.1951
vn 0.1950 0.0000 0.9808
vn 0.5557 0.0000 0.8314
vn -0.1951 0.0000 -0.9808
vn -0.5556 0.0000 -0.8314
vn -0.9808 0.0000 -0.1951
vn 0.0000 -0.1950 0.9808
vn 0.0000 -0.5556 0.8314
vn 0.0000 -0.8314 0.5557
vn 0.0000 -0.9808 0.1950
vn 0.0000 -0.9808 -0.1950
vn 0.0000 -0.8314 -0.5556
vn 0.0000 -0.5556 -0.8314
vn 0.0000 -0.1950 -0.9808
vn 0.0000 0.8314 0.5557
vn 0.0000 0.5557 -0.8314
vn -0.1951 0.0000 0.9808
vn 0.8314 0.0000 -0.5557
vn 0.5557 0.0000 -0.8314
vn -0.8314 0.0000 -0.5557
vn 0.9973 0.0730 -0.0000
vn 0.9765 0.2156 -0.0000
vn 0.9358 0.3525 -0.0000
vn 0.8768 0.4809 -0.0000
vn 0.8033 0.5956 -0.0000
vn 0.7158 0.6983 -0.0000
vn 0.6200 0.7846 -0.0000
vn 0.5148 0.8573 -0.0000
vn 0.4060 0.9139 -0.0000
vn 0.2918 0.9565 -0.0000
vn 0.1761 0.9844 -0.0000
vn 0.0592 0.9982 -0.0000
vn -0.9975 -0.0704 -0.0000
vn -0.9781 -0.2083 -0.0000
vn -0.9399 -0.3414 -0.0000
vn -0.8840 -0.4675 -0.0000
vn -0.8135 -0.5816 -0.0000
vn -0.7284 -0.6852 -0.0000
vn -0.6338 -0.7735 -0.0000
vn -0.5287 -0.8488 -0.0000
vn -0.4184 -0.9082 -0.0000
vn -0.3016 -0.9534 -0.0000
vn -0.1824 -0.9832 -0.0000
vn -0.0614 -0.9981 -0.0000
vn -0.9973 -0.0735 -0.0000
vn -0.9762 -0.2169 -0.0000
vn -0.9351 -0.3543 -0.0000
vn -0.8756 -0.4830 -0.0000
vn -0.8016 -0.5978 -0.0000
vn -0.7138 -0.7004 -0.0000
vn -0.6177 -0.7864 -0.0000
vn -0.5126 -0.8586 -0.0000
vn -0.4040 -0.9148 -0.0000
vn -0.2902 -0.9570 -0.0000
vn -0.1751 -0.9846 -0.0000
vn -0.0589 -0.9983 -0.0000
vn -0.8314 0.0000 0.5557
vn -0.5557 0.0000 0.8314
# 140 vertex normals

o Piece008
g Piece008
usemtl Material__1166
s off
f 1//1 2//1 3//1 
f 3//1 4//1 1//1 
f 5//1 6//1 7//1 
f 7//1 8//1 5//1 
f 4//1 3//1 6//1 
f 6//1 5//1 4//1 
f 2//1 1//1 8//1 
f 8//1 7//1 2//1 
f 9//2 10//2 11//2 
f 11//2 12//2 9//2 
f 12//3 11//3 13//3 
f 13//3 14//3 12//3 
f 14//4 13//4 15//4 
f 15//4 16//4 14//4 
f 16//5 15//5 3//5 
f 3//5 2//5 16//5 
f 17//6 18//6 19//6 
f 19//6 20//6 17//6 
f 21//7 17//7 20//7 
f 20//7 22//7 21//7 
f 23//8 21//8 22//8 
f 22//8 24//8 23//8 
f 6//9 23//9 24//9 
f 24//9 7//9 6//9 
f 11//10 10//10 3//10 
f 3//10 15//10 11//10 
f 11//10 15//10 13//10 
f 6//10 18//10 17//10 
f 17//10 23//10 6//10 
f 21//10 23//10 17//10 
f 2//11 9//11 12//11 
f 12//11 16//11 2//11 
f 14//11 16//11 12//11 
f 20//11 19//11 7//11 
f 7//11 24//11 20//11 
f 20//11 24//11 22//11 
f 25//1 26//1 27//1 
f 27//1 28//1 25//1 
f 29//12 25//12 28//12 
f 28//12 30//12 29//12 
f 31//13 27//13 26//13 
f 26//13 32//13 31//13 
f 33//1 34//1 35//1 
f 35//1 36//1 33//1 
f 37//12 33//12 36//12 
f 36//12 38//12 37//12 
f 39//13 35//13 34//13 
f 34//13 40//13 39//13 
f 41//1 42//1 43//1 
f 44//1 41//1 43//1 
f 45//1 44//1 43//1 
f 46//1 45//1 43//1 
f 47//1 46//1 43//1 
f 48//1 47//1 43//1 
f 49//1 48//1 43//1 
f 50//1 49//1 43//1 
f 51//1 50//1 43//1 
f 52//1 51//1 43//1 
f 53//1 52//1 43//1 
f 54//1 53//1 43//1 
f 55//1 54//1 43//1 
f 56//1 55//1 43//1 
f 57//1 56//1 43//1 
f 42//1 57//1 43//1 
f 58//14 42//14 41//14 
f 41//14 59//14 58//14 
f 59//15 41//15 44//15 
f 44//15 60//15 59//15 
f 60//16 44//16 45//16 
f 45//16 61//16 60//16 
f 61//17 45//17 46//17 
f 46//17 62//17 61//17 
f 62//18 46//18 47//18 
f 47//18 63//18 62//18 
f 63//19 47//19 48//19 
f 48//19 64//19 63//19 
f 64//20 48//20 49//20 
f 49//20 65//20 64//20 
f 65//21 49//21 50//21 
f 50//21 66//21 65//21 
f 66//22 50//22 51//22 
f 51//22 67//22 66//22 
f 67//23 51//23 52//23 
f 52//23 68//23 67//23 
f 68//24 52//24 53//24 
f 53//24 69//24 68//24 
f 69//25 53//25 54//25 
f 54//25 70//25 69//25 
f 70//26 54//26 55//26 
f 55//26 71//26 70//26 
f 71//27 55//27 56//27 
f 56//27 72//27 71//27 
f 72//28 56//28 57//28 
f 57//28 73//28 72//28 
f 73//29 57//29 42//29 
f 42//29 58//29 73//29 
f 74//1 75//1 76//1 
f 77//1 74//1 76//1 
f 78//1 77//1 76//1 
f 79//1 78//1 76//1 
f 80//1 79//1 76//1 
f 81//1 80//1 76//1 
f 82//1 81//1 76//1 
f 83//1 82//1 76//1 
f 84//1 83//1 76//1 
f 85//1 84//1 76//1 
f 86//1 85//1 76//1 
f 87//1 86//1 76//1 
f 88//1 87//1 76//1 
f 89//1 88//1 76//1 
f 90//1 89//1 76//1 
f 75//1 90//1 76//1 
f 91//14 75//14 74//14 
f 74//14 92//14 91//14 
f 92//15 74//15 77//15 
f 77//15 93//15 92//15 
f 93//16 77//16 78//16 
f 78//16 94//16 93//16 
f 94//17 78//17 79//17 
f 79//17 95//17 94//17 
f 95//18 79//18 80//18 
f 80//18 96//18 95//18 
f 96//19 80//19 81//19 
f 81//19 97//19 96//19 
f 97//20 81//20 82//20 
f 82//20 98//20 97//20 
f 98//21 82//21 83//21 
f 83//21 99//21 98//21 
f 99//22 83//22 84//22 
f 84//22 100//22 99//22 
f 100//23 84//23 85//23 
f 85//23 101//23 100//23 
f 101//24 85//24 86//24 
f 86//24 102//24 101//24 
f 102//25 86//25 87//25 
f 87//25 103//25 102//25 
f 103//26 87//26 88//26 
f 88//26 104//26 103//26 
f 104//27 88//27 89//27 
f 89//27 105//27 104//27 
f 105//28 89//28 90//28 
f 90//28 106//28 105//28 
f 106//29 90//29 75//29 
f 75//29 91//29 106//29 
f 19//1 18//1 10//1 
f 10//1 9//1 19//1 
f 18//10 6//10 3//10 
f 3//10 10//10 18//10 
f 9//11 2//11 7//11 
f 7//11 19//11 9//11 
f 107//30 108//30 109//30 
f 109//30 110//30 107//30 
f 111//31 107//31 110//31 
f 110//31 112//31 111//31 
f 113//32 111//32 112//32 
f 112//32 114//32 113//32 
f 4//33 113//33 114//33 
f 114//33 1//33 4//33 
f 115//34 116//34 117//34 
f 117//34 118//34 115//34 
f 118//35 117//35 119//35 
f 119//35 120//35 118//35 
f 120//36 119//36 121//36 
f 121//36 122//36 120//36 
f 122//37 121//37 5//37 
f 5//37 8//37 122//37 
f 4//11 108//11 107//11 
f 107//11 113//11 4//11 
f 111//11 113//11 107//11 
f 117//11 116//11 5//11 
f 5//11 121//11 117//11 
f 117//11 121//11 119//11 
f 110//10 109//10 1//10 
f 1//10 114//10 110//10 
f 110//10 114//10 112//10 
f 8//10 115//10 118//10 
f 118//10 122//10 8//10 
f 120//10 122//10 118//10 
f 5//11 116//11 123//11 
f 5//11 123//11 124//11 
f 125//11 4//11 5//11 
f 5//11 124//11 125//11 
f 125//11 126//11 4//11 
f 126//11 108//11 4//11 
f 127//11 124//11 128//11 
f 124//11 127//11 129//11 
f 129//11 125//11 124//11 
f 130//11 125//11 129//11 
f 131//10 115//10 8//10 
f 132//10 131//10 8//10 
f 132//10 8//10 1//10 
f 1//10 133//10 132//10 
f 1//10 134//10 133//10 
f 1//10 109//10 134//10 
f 133//10 135//10 136//10 
f 136//10 132//10 133//10 
f 109//38 108//38 126//38 
f 126//38 134//38 109//38 
f 123//38 116//38 115//38 
f 115//38 131//38 123//38 
f 134//39 126//39 137//39 
f 137//39 138//39 134//39 
f 138//40 137//40 139//40 
f 139//40 140//40 138//40 
f 140//41 139//41 141//41 
f 141//41 142//41 140//41 
f 142//42 141//42 130//42 
f 130//42 135//42 142//42 
f 143//43 123//43 131//43 
f 131//43 144//43 143//43 
f 145//44 143//44 144//44 
f 144//44 146//44 145//44 
f 147//45 145//45 146//45 
f 146//45 148//45 147//45 
f 128//46 147//46 148//46 
f 148//46 136//46 128//46 
f 137//11 126//11 125//11 
f 139//11 137//11 125//11 
f 141//11 139//11 125//11 
f 130//11 141//11 125//11 
f 124//11 123//11 143//11 
f 124//11 143//11 145//11 
f 124//11 145//11 147//11 
f 124//11 147//11 128//11 
f 133//10 134//10 138//10 
f 133//10 138//10 140//10 
f 133//10 140//10 142//10 
f 133//10 142//10 135//10 
f 144//10 131//10 132//10 
f 146//10 144//10 132//10 
f 148//10 146//10 132//10 
f 136//10 148//10 132//10 
f 149//10 136//10 135//10 
f 135//10 150//10 149//10 
f 128//12 136//12 149//12 
f 149//12 151//12 128//12 
f 152//13 150//13 135//13 
f 135//13 130//13 152//13 
f 153//11 154//11 155//11 
f 155//11 156//11 153//11 
f 127//38 154//38 153//38 
f 153//38 129//38 127//38 
f 129//12 153//12 156//12 
f 156//12 157//12 129//12 
f 158//13 155//13 154//13 
f 154//13 127//13 158//13 
f 130//11 129//11 157//11 
f 157//11 152//11 130//11 
f 151//11 158//11 127//11 
f 127//11 128//11 151//11 
f 150//47 159//47 160//47 
f 160//47 149//47 150//47 
f 159//48 161//48 162//48 
f 162//48 160//48 159//48 
f 161//49 163//49 164//49 
f 164//49 162//49 161//49 
f 163//50 165//50 166//50 
f 166//50 164//50 163//50 
f 165//51 167//51 168//51 
f 168//51 166//51 165//51 
f 167//52 169//52 170//52 
f 170//52 168//52 167//52 
f 169//53 171//53 172//53 
f 172//53 170//53 169//53 
f 171//54 173//54 174//54 
f 174//54 172//54 171//54 
f 173//55 175//55 176//55 
f 176//55 174//55 173//55 
f 175//56 177//56 178//56 
f 178//56 176//56 175//56 
f 177//57 179//57 180//57 
f 180//57 178//57 177//57 
f 179//58 181//58 182//58 
f 182//58 180//58 179//58 
f 151//59 183//59 184//59 
f 184//59 158//59 151//59 
f 183//60 185//60 186//60 
f 186//60 184//60 183//60 
f 185//61 187//61 188//61 
f 188//61 186//61 185//61 
f 187//62 189//62 190//62 
f 190//62 188//62 187//62 
f 189//63 191//63 192//63 
f 192//63 190//63 189//63 
f 191//64 193//64 194//64 
f 194//64 192//64 191//64 
f 193//65 195//65 196//65 
f 196//65 194//65 193//65 
f 195//66 197//66 198//66 
f 198//66 196//66 195//66 
f 197//67 199//67 200//67 
f 200//67 198//67 197//67 
f 199//68 201//68 202//68 
f 202//68 200//68 199//68 
f 201//69 203//69 204//69 
f 204//69 202//69 201//69 
f 203//70 205//70 206//70 
f 206//70 204//70 203//70 
f 207//59 208//59 152//59 
f 152//59 157//59 207//59 
f 209//60 210//60 208//60 
f 208//60 207//60 209//60 
f 211//61 212//61 210//61 
f 210//61 209//61 211//61 
f 213//62 214//62 212//62 
f 212//62 211//62 213//62 
f 215//63 216//63 214//63 
f 214//63 213//63 215//63 
f 217//64 218//64 216//64 
f 216//64 215//64 217//64 
f 219//65 220//65 218//65 
f 218//65 217//65 219//65 
f 221//66 222//66 220//66 
f 220//66 219//66 221//66 
f 223//67 224//67 222//67 
f 222//67 221//67 223//67 
f 225//68 226//68 224//68 
f 224//68 223//68 225//68 
f 227//69 228//69 226//69 
f 226//69 225//69 227//69 
f 229//70 230//70 228//70 
f 228//70 227//70 229//70 
f 231//71 232//71 156//71 
f 156//71 155//71 231//71 
f 233//72 234//72 232//72 
f 232//72 231//72 233//72 
f 235//73 236//73 234//73 
f 234//73 233//73 235//73 
f 237//74 238//74 236//74 
f 236//74 235//74 237//74 
f 239//75 240//75 238//75 
f 238//75 237//75 239//75 
f 241//76 242//76 240//76 
f 240//76 239//76 241//76 
f 243//77 244//77 242//77 
f 242//77 241//77 243//77 
f 245//78 246//78 244//78 
f 244//78 243//78 245//78 
f 247//79 248//79 246//79 
f 246//79 245//79 247//79 
f 249//80 250//80 248//80 
f 248//80 247//80 249//80 
f 251//81 252//81 250//81 
f 250//81 249//81 251//81 
f 253//82 254//82 252//82 
f 252//82 251//82 253//82 
f 151//12 149//12 160//12 
f 160//12 183//12 151//12 
f 183//12 160//12 162//12 
f 162//12 185//12 183//12 
f 185//12 162//12 164//12 
f 164//12 255//12 185//12 
f 255//12 164//12 166//12 
f 166//12 189//12 255//12 
f 189//12 166//12 168//12 
f 168//12 191//12 189//12 
f 191//12 168//12 170//12 
f 170//12 193//12 191//12 
f 170//12 256//12 195//12 
f 195//12 193//12 170//12 
f 256//12 174//12 197//12 
f 197//12 195//12 256//12 
f 174//12 176//12 199//12 
f 199//12 197//12 174//12 
f 176//12 257//12 201//12 
f 201//12 199//12 176//12 
f 257//12 180//12 203//12 
f 203//12 201//12 257//12 
f 180//12 182//12 205//12 
f 205//12 203//12 180//12 
f 208//13 159//13 150//13 
f 150//13 152//13 208//13 
f 210//13 161//13 159//13 
f 159//13 208//13 210//13 
f 258//13 163//13 161//13 
f 161//13 210//13 258//13 
f 214//13 165//13 163//13 
f 163//13 258//13 214//13 
f 216//13 167//13 165//13 
f 165//13 214//13 216//13 
f 218//13 169//13 167//13 
f 167//13 216//13 218//13 
f 218//13 220//13 259//13 
f 259//13 169//13 218//13 
f 220//13 222//13 173//13 
f 173//13 259//13 220//13 
f 222//13 224//13 175//13 
f 175//13 173//13 222//13 
f 224//13 226//13 260//13 
f 260//13 175//13 224//13 
f 226//13 228//13 179//13 
f 179//13 260//13 226//13 
f 228//13 230//13 181//13 
f 181//13 179//13 228//13 
f 156//12 232//12 207//12 
f 207//12 157//12 156//12 
f 232//12 234//12 209//12 
f 209//12 207//12 232//12 
f 234//12 236//12 261//12 
f 261//12 209//12 234//12 
f 236//12 238//12 213//12 
f 213//12 261//12 236//12 
f 238//12 240//12 215//12 
f 215//12 213//12 238//12 
f 240//12 242//12 217//12 
f 217//12 215//12 240//12 
f 244//12 219//12 217//12 
f 217//12 242//12 244//12 
f 246//12 221//12 219//12 
f 219//12 244//12 246//12 
f 248//12 223//12 221//12 
f 221//12 246//12 248//12 
f 250//12 225//12 223//12 
f 223//12 248//12 250//12 
f 252//12 227//12 225//12 
f 225//12 250//12 252//12 
f 254//12 229//12 227//12 
f 227//12 252//12 254//12 
f 158//13 184//13 231//13 
f 231//13 155//13 158//13 
f 184//13 186//13 233//13 
f 233//13 231//13 184//13 
f 186//13 262//13 235//13 
f 235//13 233//13 186//13 
f 262//13 190//13 237//13 
f 237//13 235//13 262//13 
f 190//13 192//13 239//13 
f 239//13 237//13 190//13 
f 192//13 194//13 241//13 
f 241//13 239//13 192//13 
f 241//13 194//13 196//13 
f 196//13 243//13 241//13 
f 243//13 196//13 198//13 
f 198//13 245//13 243//13 
f 245//13 198//13 200//13 
f 200//13 247//13 245//13 
f 247//13 200//13 202//13 
f 202//13 249//13 247//13 
f 249//13 202//13 204//13 
f 204//13 251//13 249//13 
f 251//13 204//13 206//13 
f 206//13 253//13 251//13 
f 263//38 182//38 181//38 
f 181//38 264//38 263//38 
f 265//12 205//12 182//12 
f 182//12 263//12 265//12 
f 230//13 266//13 264//13 
f 264//13 181//13 230//13 
f 254//1 253//1 267//1 
f 267//1 268//1 254//1 
f 253//13 206//13 269//13 
f 269//13 267//13 253//13 
f 268//12 270//12 229//12 
f 229//12 254//12 268//12 
f 229//1 270//1 266//1 
f 266//1 230//1 229//1 
f 205//1 265//1 269//1 
f 269//1 206//1 205//1 
f 266//11 270//11 268//11 
f 268//11 264//11 266//11 
f 263//11 267//11 269//11 
f 269//11 265//11 263//11 
f 264//11 268//11 267//11 
f 267//11 263//11 264//11 
f 271//83 272//83 273//83 
f 273//83 274//83 271//83 
f 274//23 273//23 275//23 
f 275//23 276//23 274//23 
f 276//24 275//24 277//24 
f 277//24 278//24 276//24 
f 278//25 277//25 279//25 
f 279//25 280//25 278//25 
f 280//84 279//84 281//84 
f 281//84 282//84 280//84 
f 282//85 281//85 283//85 
f 283//85 284//85 282//85 
f 284//28 283//28 285//28 
f 285//28 286//28 284//28 
f 286//29 285//29 287//29 
f 287//29 288//29 286//29 
f 288//14 287//14 289//14 
f 289//14 290//14 288//14 
f 290//15 289//15 291//15 
f 291//15 292//15 290//15 
f 292//16 291//16 293//16 
f 293//16 294//16 292//16 
f 294//17 293//17 295//17 
f 295//17 296//17 294//17 
f 296//86 295//86 297//86 
f 297//86 298//86 296//86 
f 298//87 297//87 299//87 
f 299//87 300//87 298//87 
f 300//20 299//20 301//20 
f 301//20 302//20 300//20 
f 302//88 301//88 272//88 
f 272//88 271//88 302//88 
f 303//14 304//14 305//14 
f 305//14 306//14 303//14 
f 307//15 303//15 306//15 
f 306//15 308//15 307//15 
f 309//16 307//16 308//16 
f 308//16 310//16 309//16 
f 311//17 309//17 310//17 
f 310//17 312//17 311//17 
f 313//18 311//18 312//18 
f 312//18 314//18 313//18 
f 315//87 313//87 314//87 
f 314//87 316//87 315//87 
f 317//20 315//20 316//20 
f 316//20 318//20 317//20 
f 319//21 317//21 318//21 
f 318//21 320//21 319//21 
f 321//22 319//22 320//22 
f 320//22 322//22 321//22 
f 323//23 321//23 322//23 
f 322//23 324//23 323//23 
f 325//24 323//24 324//24 
f 324//24 326//24 325//24 
f 327//25 325//25 326//25 
f 326//25 328//25 327//25 
f 329//84 327//84 328//84 
f 328//84 330//84 329//84 
f 331//27 329//27 330//27 
f 330//27 332//27 331//27 
f 333//28 331//28 332//28 
f 332//28 334//28 333//28 
f 304//29 333//29 334//29 
f 334//29 305//29 304//29 
f 279//38 311//38 313//38 
f 313//38 281//38 279//38 
f 281//38 313//38 315//38 
f 315//38 283//38 281//38 
f 283//38 315//38 317//38 
f 317//38 285//38 283//38 
f 285//38 317//38 319//38 
f 319//38 287//38 285//38 
f 287//38 319//38 321//38 
f 321//38 289//38 287//38 
f 289//38 321//38 323//38 
f 323//38 291//38 289//38 
f 291//38 323//38 325//38 
f 325//38 293//38 291//38 
f 293//38 325//38 327//38 
f 327//38 295//38 293//38 
f 295//38 327//38 329//38 
f 329//38 297//38 295//38 
f 297//38 329//38 331//38 
f 331//38 299//38 297//38 
f 299//38 331//38 333//38 
f 333//38 301//38 299//38 
f 301//38 333//38 304//38 
f 304//38 272//38 301//38 
f 272//38 304//38 303//38 
f 303//38 273//38 272//38 
f 273//38 303//38 307//38 
f 307//38 275//38 273//38 
f 275//38 307//38 309//38 
f 309//38 277//38 275//38 
f 277//38 309//38 311//38 
f 311//38 279//38 277//38 
f 335//83 336//83 337//83 
f 337//83 338//83 335//83 
f 338//23 337//23 339//23 
f 339//23 340//23 338//23 
f 340//24 339//24 341//24 
f 341//24 342//24 340//24 
f 342//25 341//25 343//25 
f 343//25 344//25 342//25 
f 344//84 343//84 345//84 
f 345//84 346//84 344//84 
f 346//85 345//85 347//85 
f 347//85 348//85 346//85 
f 348//28 347//28 349//28 
f 349//28 350//28 348//28 
f 350//29 349//29 351//29 
f 351//29 352//29 350//29 
f 352//14 351//14 353//14 
f 353//14 354//14 352//14 
f 354//15 353//15 355//15 
f 355//15 356//15 354//15 
f 356//16 355//16 357//16 
f 357//16 358//16 356//16 
f 358//17 357//17 359//17 
f 359//17 360//17 358//17 
f 360//86 359//86 361//86 
f 361//86 362//86 360//86 
f 362//87 361//87 363//87 
f 363//87 364//87 362//87 
f 364//20 363//20 365//20 
f 365//20 366//20 364//20 
f 366//88 365//88 336//88 
f 336//88 335//88 366//88 
f 367//14 368//14 369//14 
f 369//14 370//14 367//14 
f 371//15 367//15 370//15 
f 370//15 372//15 371//15 
f 373//16 371//16 372//16 
f 372//16 374//16 373//16 
f 375//17 373//17 374//17 
f 374//17 376//17 375//17 
f 377//18 375//18 376//18 
f 376//18 378//18 377//18 
f 379//87 377//87 378//87 
f 378//87 380//87 379//87 
f 381//20 379//20 380//20 
f 380//20 382//20 381//20 
f 383//21 381//21 382//21 
f 382//21 384//21 383//21 
f 385//22 383//22 384//22 
f 384//22 386//22 385//22 
f 387//23 385//23 386//23 
f 386//23 388//23 387//23 
f 389//24 387//24 388//24 
f 388//24 390//24 389//24 
f 391//25 389//25 390//25 
f 390//25 392//25 391//25 
f 393//84 391//84 392//84 
f 392//84 394//84 393//84 
f 395//27 393//27 394//27 
f 394//27 396//27 395//27 
f 397//28 395//28 396//28 
f 396//28 398//28 397//28 
f 368//29 397//29 398//29 
f 398//29 369//29 368//29 
f 343//38 375//38 377//38 
f 377//38 345//38 343//38 
f 345//38 377//38 379//38 
f 379//38 347//38 345//38 
f 347//38 379//38 381//38 
f 381//38 349//38 347//38 
f 349//38 381//38 383//38 
f 383//38 351//38 349//38 
f 351//38 383//38 385//38 
f 385//38 353//38 351//38 
f 353//38 385//38 387//38 
f 387//38 355//38 353//38 
f 355//38 387//38 389//38 
f 389//38 357//38 355//38 
f 357//38 389//38 391//38 
f 391//38 359//38 357//38 
f 359//38 391//38 393//38 
f 393//38 361//38 359//38 
f 361//38 393//38 395//38 
f 395//38 363//38 361//38 
f 363//38 395//38 397//38 
f 397//38 365//38 363//38 
f 365//38 397//38 368//38 
f 368//38 336//38 365//38 
f 336//38 368//38 367//38 
f 367//38 337//38 336//38 
f 337//38 367//38 371//38 
f 371//38 339//38 337//38 
f 339//38 371//38 373//38 
f 373//38 341//38 339//38 
f 341//38 373//38 375//38 
f 375//38 343//38 341//38 
f 399//1 400//1 401//1 
f 401//1 402//1 399//1 
f 399//11 403//11 404//11 
f 404//11 400//11 399//11 
f 405//12 406//12 407//12 
f 407//12 408//12 405//12 
f 408//12 409//12 405//12 
f 410//13 411//13 412//13 
f 412//13 413//13 410//13 
f 412//13 414//13 413//13 
f 410//13 413//13 401//13 
f 400//13 404//13 410//13 
f 410//13 401//13 400//13 
f 402//12 408//12 407//12 
f 402//12 407//12 403//12 
f 403//12 399//12 402//12 
f 415//46 416//46 417//46 
f 417//46 418//46 415//46 
f 419//45 415//45 418//45 
f 418//45 420//45 419//45 
f 421//44 419//44 420//44 
f 420//44 422//44 421//44 
f 423//43 421//43 422//43 
f 422//43 424//43 423//43 
f 425//39 423//39 424//39 
f 424//39 426//39 425//39 
f 427//40 425//40 426//40 
f 426//40 428//40 427//40 
f 429//41 427//41 428//41 
f 428//41 430//41 429//41 
f 431//42 429//42 430//42 
f 430//42 432//42 431//42 
f 433//89 434//89 435//89 
f 435//89 436//89 433//89 
f 436//90 435//90 437//90 
f 437//90 438//90 436//90 
f 438//91 437//91 439//91 
f 439//91 440//91 438//91 
f 440//92 439//92 441//92 
f 441//92 442//92 440//92 
f 442//93 441//93 443//93 
f 443//93 444//93 442//93 
f 444//94 443//94 445//94 
f 445//94 446//94 444//94 
f 446//95 445//95 447//95 
f 447//95 448//95 446//95 
f 448//96 447//96 449//96 
f 449//96 450//96 448//96 
f 451//42 431//42 432//42 
f 432//42 452//42 451//42 
f 453//41 451//41 452//41 
f 452//41 454//41 453//41 
f 455//97 453//97 454//97 
f 454//97 456//97 455//97 
f 457//39 455//39 456//39 
f 456//39 458//39 457//39 
f 459//43 457//43 458//43 
f 458//43 460//43 459//43 
f 461//44 459//44 460//44 
f 460//44 462//44 461//44 
f 463//98 461//98 462//98 
f 462//98 464//98 463//98 
f 449//46 463//46 464//46 
f 464//46 450//46 449//46 
f 465//42 434//42 433//42 
f 433//42 466//42 465//42 
f 467//41 465//41 466//41 
f 466//41 468//41 467//41 
f 469//97 467//97 468//97 
f 468//97 470//97 469//97 
f 471//39 469//39 470//39 
f 470//39 472//39 471//39 
f 473//43 471//43 472//43 
f 472//43 474//43 473//43 
f 475//44 473//44 474//44 
f 474//44 476//44 475//44 
f 477//98 475//98 476//98 
f 476//98 478//98 477//98 
f 416//46 477//46 478//46 
f 478//46 417//46 416//46 
f 450//11 432//11 430//11 
f 430//11 448//11 450//11 
f 448//11 430//11 428//11 
f 428//11 446//11 448//11 
f 446//11 428//11 426//11 
f 426//11 444//11 446//11 
f 444//11 426//11 424//11 
f 424//11 442//11 444//11 
f 442//11 424//11 422//11 
f 422//11 440//11 442//11 
f 440//11 422//11 420//11 
f 420//11 438//11 440//11 
f 438//11 420//11 418//11 
f 418//11 436//11 438//11 
f 436//11 418//11 417//11 
f 417//11 433//11 436//11 
f 452//11 432//11 479//11 
f 454//11 452//11 479//11 
f 456//11 454//11 479//11 
f 458//11 456//11 479//11 
f 460//11 458//11 479//11 
f 462//11 460//11 479//11 
f 464//11 462//11 479//11 
f 450//11 464//11 479//11 
f 466//11 433//11 480//11 
f 468//11 466//11 480//11 
f 470//11 468//11 480//11 
f 472//11 470//11 480//11 
f 474//11 472//11 480//11 
f 476//11 474//11 480//11 
f 478//11 476//11 480//11 
f 417//11 478//11 480//11 
f 481//1 482//1 483//1 
f 483//1 484//1 481//1 
f 485//1 486//1 487//1 
f 487//1 488//1 485//1 
f 484//1 483//1 486//1 
f 486//1 485//1 484//1 
f 482//1 481//1 488//1 
f 488//1 487//1 482//1 
f 489//6 490//6 491//6 
f 491//6 492//6 489//6 
f 492//7 491//7 493//7 
f 493//7 494//7 492//7 
f 494//8 493//8 495//8 
f 495//8 496//8 494//8 
f 496//9 495//9 483//9 
f 483//9 482//9 496//9 
f 497//2 498//2 499//2 
f 499//2 500//2 497//2 
f 501//3 497//3 500//3 
f 500//3 502//3 501//3 
f 503//4 501//4 502//4 
f 502//4 504//4 503//4 
f 486//5 503//5 504//5 
f 504//5 487//5 486//5 
f 491//11 490//11 483//11 
f 483//11 495//11 491//11 
f 491//11 495//11 493//11 
f 486//11 498//11 497//11 
f 497//11 503//11 486//11 
f 501//11 503//11 497//11 
f 482//10 489//10 492//10 
f 492//10 496//10 482//10 
f 494//10 496//10 492//10 
f 500//10 499//10 487//10 
f 487//10 504//10 500//10 
f 500//10 504//10 502//10 
f 505//1 506//1 507//1 
f 507//1 508//1 505//1 
f 509//13 505//13 508//13 
f 508//13 510//13 509//13 
f 511//12 507//12 506//12 
f 506//12 512//12 511//12 
f 513//1 514//1 515//1 
f 515//1 516//1 513//1 
f 517//13 513//13 516//13 
f 516//13 518//13 517//13 
f 519//12 515//12 514//12 
f 514//12 520//12 519//12 
f 521//1 522//1 523//1 
f 524//1 521//1 523//1 
f 525//1 524//1 523//1 
f 526//1 525//1 523//1 
f 527//1 526//1 523//1 
f 528//1 527//1 523//1 
f 529//1 528//1 523//1 
f 530//1 529//1 523//1 
f 531//1 530//1 523//1 
f 532//1 531//1 523//1 
f 533//1 532//1 523//1 
f 534//1 533//1 523//1 
f 535//1 534//1 523//1 
f 536//1 535//1 523//1 
f 537//1 536//1 523//1 
f 522//1 537//1 523//1 
f 538//22 522//22 521//22 
f 521//22 539//22 538//22 
f 539//23 521//23 524//23 
f 524//23 540//23 539//23 
f 540//24 524//24 525//24 
f 525//24 541//24 540//24 
f 541//99 525//99 526//99 
f 526//99 542//99 541//99 
f 542//26 526//26 527//26 
f 527//26 543//26 542//26 
f 543//27 527//27 528//27 
f 528//27 544//27 543//27 
f 544//28 528//28 529//28 
f 529//28 545//28 544//28 
f 545//29 529//29 530//29 
f 530//29 546//29 545//29 
f 546//14 530//14 531//14 
f 531//14 547//14 546//14 
f 547//100 531//100 532//100 
f 532//100 548//100 547//100 
f 548//101 532//101 533//101 
f 533//101 549//101 548//101 
f 549//17 533//17 534//17 
f 534//17 550//17 549//17 
f 550//18 534//18 535//18 
f 535//18 551//18 550//18 
f 551//87 535//87 536//87 
f 536//87 552//87 551//87 
f 552//102 536//102 537//102 
f 537//102 553//102 552//102 
f 553//21 537//21 522//21 
f 522//21 538//21 553//21 
f 554//1 555//1 556//1 
f 557//1 554//1 556//1 
f 558//1 557//1 556//1 
f 559//1 558//1 556//1 
f 560//1 559//1 556//1 
f 561//1 560//1 556//1 
f 562//1 561//1 556//1 
f 563//1 562//1 556//1 
f 564//1 563//1 556//1 
f 565//1 564//1 556//1 
f 566//1 565//1 556//1 
f 567//1 566//1 556//1 
f 568//1 567//1 556//1 
f 569//1 568//1 556//1 
f 570//1 569//1 556//1 
f 555//1 570//1 556//1 
f 571//22 555//22 554//22 
f 554//22 572//22 571//22 
f 572//23 554//23 557//23 
f 557//23 573//23 572//23 
f 573//24 557//24 558//24 
f 558//24 574//24 573//24 
f 574//99 558//99 559//99 
f 559//99 575//99 574//99 
f 575//26 559//26 560//26 
f 560//26 576//26 575//26 
f 576//27 560//27 561//27 
f 561//27 577//27 576//27 
f 577//28 561//28 562//28 
f 562//28 578//28 577//28 
f 578//29 562//29 563//29 
f 563//29 579//29 578//29 
f 579//14 563//14 564//14 
f 564//14 580//14 579//14 
f 580//100 564//100 565//100 
f 565//100 581//100 580//100 
f 581//101 565//101 566//101 
f 566//101 582//101 581//101 
f 582//17 566//17 567//17 
f 567//17 583//17 582//17 
f 583//18 567//18 568//18 
f 568//18 584//18 583//18 
f 584//87 568//87 569//87 
f 569//87 585//87 584//87 
f 585//102 569//102 570//102 
f 570//102 586//102 585//102 
f 586//21 570//21 555//21 
f 555//21 571//21 586//21 
f 499//1 498//1 490//1 
f 490//1 489//1 499//1 
f 498//11 486//11 483//11 
f 483//11 490//11 498//11 
f 489//10 482//10 487//10 
f 487//10 499//10 489//10 
f 587//34 588//34 589//34 
f 589//34 590//34 587//34 
f 591//35 587//35 590//35 
f 590//35 592//35 591//35 
f 593//36 591//36 592//36 
f 592//36 594//36 593//36 
f 484//37 593//37 594//37 
f 594//37 481//37 484//37 
f 595//30 596//30 597//30 
f 597//30 598//30 595//30 
f 598//31 597//31 599//31 
f 599//31 600//31 598//31 
f 600//32 599//32 601//32 
f 601//32 602//32 600//32 
f 602//33 601//33 485//33 
f 485//33 488//33 602//33 
f 484//10 588//10 587//10 
f 587//10 593//10 484//10 
f 591//10 593//10 587//10 
f 597//10 596//10 485//10 
f 485//10 601//10 597//10 
f 597//10 601//10 599//10 
f 590//11 589//11 481//11 
f 481//11 594//11 590//11 
f 590//11 594//11 592//11 
f 488//11 595//11 598//11 
f 598//11 602//11 488//11 
f 600//11 602//11 598//11 
f 485//10 596//10 603//10 
f 485//10 603//10 604//10 
f 605//10 484//10 485//10 
f 485//10 604//10 605//10 
f 605//10 606//10 484//10 
f 606//10 588//10 484//10 
f 607//10 604//10 608//10 
f 604//10 607//10 609//10 
f 609//10 605//10 604//10 
f 610//10 605//10 609//10 
f 611//11 595//11 488//11 
f 612//11 611//11 488//11 
f 612//11 488//11 481//11 
f 481//11 613//11 612//11 
f 481//11 614//11 613//11 
f 481//11 589//11 614//11 
f 613//11 615//11 616//11 
f 616//11 612//11 613//11 
f 589//38 588//38 606//38 
f 606//38 614//38 589//38 
f 603//38 596//38 595//38 
f 595//38 611//38 603//38 
f 614//43 606//43 617//43 
f 617//43 618//43 614//43 
f 618//44 617//44 619//44 
f 619//44 620//44 618//44 
f 620//45 619//45 621//45 
f 621//45 622//45 620//45 
f 622//46 621//46 610//46 
f 610//46 615//46 622//46 
f 623//39 603//39 611//39 
f 611//39 624//39 623//39 
f 625//40 623//40 624//40 
f 624//40 626//40 625//40 
f 627//41 625//41 626//41 
f 626//41 628//41 627//41 
f 608//42 627//42 628//42 
f 628//42 616//42 608//42 
f 617//10 606//10 605//10 
f 619//10 617//10 605//10 
f 621//10 619//10 605//10 
f 610//10 621//10 605//10 
f 604//10 603//10 623//10 
f 604//10 623//10 625//10 
f 604//10 625//10 627//10 
f 604//10 627//10 608//10 
f 613//11 614//11 618//11 
f 613//11 618//11 620//11 
f 613//11 620//11 622//11 
f 613//11 622//11 615//11 
f 624//11 611//11 612//11 
f 626//11 624//11 612//11 
f 628//11 626//11 612//11 
f 616//11 628//11 612//11 
f 629//11 616//11 615//11 
f 615//11 630//11 629//11 
f 608//13 616//13 629//13 
f 629//13 631//13 608//13 
f 632//12 630//12 615//12 
f 615//12 610//12 632//12 
f 633//10 634//10 635//10 
f 635//10 636//10 633//10 
f 607//38 634//38 633//38 
f 633//38 609//38 607//38 
f 609//13 633//13 636//13 
f 636//13 637//13 609//13 
f 638//12 635//12 634//12 
f 634//12 607//12 638//12 
f 610//10 609//10 637//10 
f 637//10 632//10 610//10 
f 631//10 638//10 607//10 
f 607//10 608//10 631//10 
f 630//103 639//103 640//103 
f 640//103 629//103 630//103 
f 639//104 641//104 642//104 
f 642//104 640//104 639//104 
f 641//105 643//105 644//105 
f 644//105 642//105 641//105 
f 643//106 645//106 646//106 
f 646//106 644//106 643//106 
f 645//107 647//107 648//107 
f 648//107 646//107 645//107 
f 647//108 649//108 650//108 
f 650//108 648//108 647//108 
f 649//109 651//109 652//109 
f 652//109 650//109 649//109 
f 651//110 653//110 654//110 
f 654//110 652//110 651//110 
f 653//111 655//111 656//111 
f 656//111 654//111 653//111 
f 655//112 657//112 658//112 
f 658//112 656//112 655//112 
f 657//113 659//113 660//113 
f 660//113 658//113 657//113 
f 659//114 661//114 662//114 
f 662//114 660//114 659//114 
f 631//115 663//115 664//115 
f 664//115 638//115 631//115 
f 663//116 665//116 666//116 
f 666//116 664//116 663//116 
f 665//117 667//117 668//117 
f 668//117 666//117 665//117 
f 667//118 669//118 670//118 
f 670//118 668//118 667//118 
f 669//119 671//119 672//119 
f 672//119 670//119 669//119 
f 671//120 673//120 674//120 
f 674//120 672//120 671//120 
f 673//121 675//121 676//121 
f 676//121 674//121 673//121 
f 675//122 677//122 678//122 
f 678//122 676//122 675//122 
f 677//123 679//123 680//123 
f 680//123 678//123 677//123 
f 679//124 681//124 682//124 
f 682//124 680//124 679//124 
f 681//125 683//125 684//125 
f 684//125 682//125 681//125 
f 683//126 685//126 686//126 
f 686//126 684//126 683//126 
f 687//115 688//115 632//115 
f 632//115 637//115 687//115 
f 689//116 690//116 688//116 
f 688//116 687//116 689//116 
f 691//117 692//117 690//117 
f 690//117 689//117 691//117 
f 693//118 694//118 692//118 
f 692//118 691//118 693//118 
f 695//119 696//119 694//119 
f 694//119 693//119 695//119 
f 697//120 698//120 696//120 
f 696//120 695//120 697//120 
f 699//121 700//121 698//121 
f 698//121 697//121 699//121 
f 701//122 702//122 700//122 
f 700//122 699//122 701//122 
f 703//123 704//123 702//123 
f 702//123 701//123 703//123 
f 705//124 706//124 704//124 
f 704//124 703//124 705//124 
f 707//125 708//125 706//125 
f 706//125 705//125 707//125 
f 709//126 710//126 708//126 
f 708//126 707//126 709//126 
f 711//127 712//127 636//127 
f 636//127 635//127 711//127 
f 713//128 714//128 712//128 
f 712//128 711//128 713//128 
f 715//129 716//129 714//129 
f 714//129 713//129 715//129 
f 717//130 718//130 716//130 
f 716//130 715//130 717//130 
f 719//131 720//131 718//131 
f 718//131 717//131 719//131 
f 721//132 722//132 720//132 
f 720//132 719//132 721//132 
f 723//133 724//133 722//133 
f 722//133 721//133 723//133 
f 725//134 726//134 724//134 
f 724//134 723//134 725//134 
f 727//135 728//135 726//135 
f 726//135 725//135 727//135 
f 729//136 730//136 728//136 
f 728//136 727//136 729//136 
f 731//137 732//137 730//137 
f 730//137 729//137 731//137 
f 733//138 734//138 732//138 
f 732//138 731//138 733//138 
f 631//13 629//13 640//13 
f 640//13 663//13 631//13 
f 663//13 640//13 642//13 
f 642//13 665//13 663//13 
f 665//13 642//13 644//13 
f 644//13 735//13 665//13 
f 735//13 644//13 646//13 
f 646//13 669//13 735//13 
f 669//13 646//13 648//13 
f 648//13 671//13 669//13 
f 671//13 648//13 650//13 
f 650//13 673//13 671//13 
f 650//13 736//13 675//13 
f 675//13 673//13 650//13 
f 736//13 654//13 677//13 
f 677//13 675//13 736//13 
f 654//13 656//13 679//13 
f 679//13 677//13 654//13 
f 656//13 658//13 681//13 
f 681//13 679//13 656//13 
f 658//13 660//13 683//13 
f 683//13 681//13 658//13 
f 660//13 662//13 685//13 
f 685//13 683//13 660//13 
f 688//12 639//12 630//12 
f 630//12 632//12 688//12 
f 690//12 641//12 639//12 
f 639//12 688//12 690//12 
f 737//12 643//12 641//12 
f 641//12 690//12 737//12 
f 694//12 645//12 643//12 
f 643//12 737//12 694//12 
f 696//12 647//12 645//12 
f 645//12 694//12 696//12 
f 698//12 649//12 647//12 
f 647//12 696//12 698//12 
f 698//12 700//12 738//12 
f 738//12 649//12 698//12 
f 700//12 702//12 653//12 
f 653//12 738//12 700//12 
f 702//12 704//12 655//12 
f 655//12 653//12 702//12 
f 704//12 706//12 657//12 
f 657//12 655//12 704//12 
f 706//12 708//12 659//12 
f 659//12 657//12 706//12 
f 708//12 710//12 661//12 
f 661//12 659//12 708//12 
f 636//13 712//13 687//13 
f 687//13 637//13 636//13 
f 712//13 714//13 689//13 
f 689//13 687//13 712//13 
f 714//13 716//13 739//13 
f 739//13 689//13 714//13 
f 716//13 718//13 693//13 
f 693//13 739//13 716//13 
f 718//13 720//13 695//13 
f 695//13 693//13 718//13 
f 720//13 722//13 697//13 
f 697//13 695//13 720//13 
f 724//13 699//13 697//13 
f 697//13 722//13 724//13 
f 726//13 701//13 699//13 
f 699//13 724//13 726//13 
f 728//13 703//13 701//13 
f 701//13 726//13 728//13 
f 730//13 705//13 703//13 
f 703//13 728//13 730//13 
f 732//13 707//13 705//13 
f 705//13 730//13 732//13 
f 734//13 709//13 707//13 
f 707//13 732//13 734//13 
f 638//12 664//12 711//12 
f 711//12 635//12 638//12 
f 664//12 666//12 713//12 
f 713//12 711//12 664//12 
f 666//12 740//12 715//12 
f 715//12 713//12 666//12 
f 740//12 670//12 717//12 
f 717//12 715//12 740//12 
f 670//12 672//12 719//12 
f 719//12 717//12 670//12 
f 672//12 674//12 721//12 
f 721//12 719//12 672//12 
f 721//12 674//12 676//12 
f 676//12 723//12 721//12 
f 723//12 676//12 678//12 
f 678//12 725//12 723//12 
f 725//12 678//12 680//12 
f 680//12 727//12 725//12 
f 727//12 680//12 682//12 
f 682//12 729//12 727//12 
f 729//12 682//12 684//12 
f 684//12 731//12 729//12 
f 731//12 684//12 686//12 
f 686//12 733//12 731//12 
f 264//38 662//38 661//38 
f 661//38 263//38 264//38 
f 266//13 685//13 662//13 
f 662//13 264//13 266//13 
f 710//12 265//12 263//12 
f 263//12 661//12 710//12 
f 734//1 733//1 268//1 
f 268//1 267//1 734//1 
f 733//12 686//12 270//12 
f 270//12 268//12 733//12 
f 267//13 269//13 709//13 
f 709//13 734//13 267//13 
f 709//1 269//1 265//1 
f 265//1 710//1 709//1 
f 685//1 266//1 270//1 
f 270//1 686//1 685//1 
f 265//10 269//10 267//10 
f 267//10 263//10 265//10 
f 264//10 268//10 270//10 
f 270//10 266//10 264//10 
f 263//10 267//10 268//10 
f 268//10 264//10 263//10 
f 741//14 742//14 743//14 
f 743//14 744//14 741//14 
f 744//15 743//15 745//15 
f 745//15 746//15 744//15 
f 746//16 745//16 747//16 
f 747//16 748//16 746//16 
f 748//17 747//17 749//17 
f 749//17 750//17 748//17 
f 750//86 749//86 751//86 
f 751//86 752//86 750//86 
f 752//87 751//87 753//87 
f 753//87 754//87 752//87 
f 754//20 753//20 755//20 
f 755//20 756//20 754//20 
f 756//88 755//88 757//88 
f 757//88 758//88 756//88 
f 758//83 757//83 759//83 
f 759//83 760//83 758//83 
f 760//23 759//23 761//23 
f 761//23 762//23 760//23 
f 762//24 761//24 763//24 
f 763//24 764//24 762//24 
f 764//25 763//25 765//25 
f 765//25 766//25 764//25 
f 766//84 765//84 767//84 
f 767//84 768//84 766//84 
f 768//85 767//85 769//85 
f 769//85 770//85 768//85 
f 770//28 769//28 771//28 
f 771//28 772//28 770//28 
f 772//29 771//29 742//29 
f 742//29 741//29 772//29 
f 773//22 774//22 775//22 
f 775//22 776//22 773//22 
f 777//23 773//23 776//23 
f 776//23 778//23 777//23 
f 779//24 777//24 778//24 
f 778//24 780//24 779//24 
f 781//25 779//25 780//25 
f 780//25 782//25 781//25 
f 783//84 781//84 782//84 
f 782//84 784//84 783//84 
f 785//27 783//27 784//27 
f 784//27 786//27 785//27 
f 787//28 785//28 786//28 
f 786//28 788//28 787//28 
f 789//29 787//29 788//29 
f 788//29 790//29 789//29 
f 791//14 789//14 790//14 
f 790//14 792//14 791//14 
f 793//15 791//15 792//15 
f 792//15 794//15 793//15 
f 795//16 793//16 794//16 
f 794//16 796//16 795//16 
f 797//17 795//17 796//17 
f 796//17 798//17 797//17 
f 799//18 797//18 798//18 
f 798//18 800//18 799//18 
f 801//87 799//87 800//87 
f 800//87 802//87 801//87 
f 803//20 801//20 802//20 
f 802//20 804//20 803//20 
f 774//21 803//21 804//21 
f 804//21 775//21 774//21 
f 749//38 781//38 783//38 
f 783//38 751//38 749//38 
f 751//38 783//38 785//38 
f 785//38 753//38 751//38 
f 753//38 785//38 787//38 
f 787//38 755//38 753//38 
f 755//38 787//38 789//38 
f 789//38 757//38 755//38 
f 757//38 789//38 791//38 
f 791//38 759//38 757//38 
f 759//38 791//38 793//38 
f 793//38 761//38 759//38 
f 761//38 793//38 795//38 
f 795//38 763//38 761//38 
f 763//38 795//38 797//38 
f 797//38 765//38 763//38 
f 765//38 797//38 799//38 
f 799//38 767//38 765//38 
f 767//38 799//38 801//38 
f 801//38 769//38 767//38 
f 769//38 801//38 803//38 
f 803//38 771//38 769//38 
f 771//38 803//38 774//38 
f 774//38 742//38 771//38 
f 742//38 774//38 773//38 
f 773//38 743//38 742//38 
f 743//38 773//38 777//38 
f 777//38 745//38 743//38 
f 745//38 777//38 779//38 
f 779//38 747//38 745//38 
f 747//38 779//38 781//38 
f 781//38 749//38 747//38 
f 805//14 806//14 807//14 
f 807//14 808//14 805//14 
f 808//15 807//15 809//15 
f 809//15 810//15 808//15 
f 810//16 809//16 811//16 
f 811//16 812//16 810//16 
f 812//17 811//17 813//17 
f 813//17 814//17 812//17 
f 814//86 813//86 815//86 
f 815//86 816//86 814//86 
f 816//87 815//87 817//87 
f 817//87 818//87 816//87 
f 818//20 817//20 819//20 
f 819//20 820//20 818//20 
f 820//21 819//21 821//21 
f 821//21 822//21 820//21 
f 822//22 821//22 823//22 
f 823//22 824//22 822//22 
f 824//139 823//139 825//139 
f 825//139 826//139 824//139 
f 826//140 825//140 827//140 
f 827//140 828//140 826//140 
f 828//25 827//25 829//25 
f 829//25 830//25 828//25 
f 830//84 829//84 831//84 
f 831//84 832//84 830//84 
f 832//85 831//85 833//85 
f 833//85 834//85 832//85 
f 834//28 833//28 835//28 
f 835//28 836//28 834//28 
f 836//29 835//29 806//29 
f 806//29 805//29 836//29 
f 837//22 838//22 839//22 
f 839//22 840//22 837//22 
f 841//23 837//23 840//23 
f 840//23 842//23 841//23 
f 843//24 841//24 842//24 
f 842//24 844//24 843//24 
f 845//25 843//25 844//25 
f 844//25 846//25 845//25 
f 847//84 845//84 846//84 
f 846//84 848//84 847//84 
f 849//27 847//27 848//27 
f 848//27 850//27 849//27 
f 851//28 849//28 850//28 
f 850//28 852//28 851//28 
f 853//29 851//29 852//29 
f 852//29 854//29 853//29 
f 855//14 853//14 854//14 
f 854//14 856//14 855//14 
f 857//15 855//15 856//15 
f 856//15 858//15 857//15 
f 859//16 857//16 858//16 
f 858//16 860//16 859//16 
f 861//17 859//17 860//17 
f 860//17 862//17 861//17 
f 863//18 861//18 862//18 
f 862//18 864//18 863//18 
f 865//87 863//87 864//87 
f 864//87 866//87 865//87 
f 867//20 865//20 866//20 
f 866//20 868//20 867//20 
f 838//21 867//21 868//21 
f 868//21 839//21 838//21 
f 813//38 845//38 847//38 
f 847//38 815//38 813//38 
f 815//38 847//38 849//38 
f 849//38 817//38 815//38 
f 817//38 849//38 851//38 
f 851//38 819//38 817//38 
f 819//38 851//38 853//38 
f 853//38 821//38 819//38 
f 821//38 853//38 855//38 
f 855//38 823//38 821//38 
f 823//38 855//38 857//38 
f 857//38 825//38 823//38 
f 825//38 857//38 859//38 
f 859//38 827//38 825//38 
f 827//38 859//38 861//38 
f 861//38 829//38 827//38 
f 829//38 861//38 863//38 
f 863//38 831//38 829//38 
f 831//38 863//38 865//38 
f 865//38 833//38 831//38 
f 833//38 865//38 867//38 
f 867//38 835//38 833//38 
f 835//38 867//38 838//38 
f 838//38 806//38 835//38 
f 806//38 838//38 837//38 
f 837//38 807//38 806//38 
f 807//38 837//38 841//38 
f 841//38 809//38 807//38 
f 809//38 841//38 843//38 
f 843//38 811//38 809//38 
f 811//38 843//38 845//38 
f 845//38 813//38 811//38 
f 869//1 870//1 871//1 
f 871//1 872//1 869//1 
f 869//10 873//10 874//10 
f 874//10 870//10 869//10 
f 875//13 876//13 877//13 
f 877//13 878//13 875//13 
f 878//13 879//13 875//13 
f 880//12 881//12 882//12 
f 882//12 883//12 880//12 
f 882//12 884//12 883//12 
f 880//12 883//12 871//12 
f 870//12 874//12 880//12 
f 880//12 871//12 870//12 
f 872//13 878//13 877//13 
f 872//13 877//13 873//13 
f 873//13 869//13 872//13 
f 885//42 886//42 887//42 
f 887//42 888//42 885//42 
f 889//41 885//41 888//41 
f 888//41 890//41 889//41 
f 891//40 889//40 890//40 
f 890//40 892//40 891//40 
f 893//39 891//39 892//39 
f 892//39 894//39 893//39 
f 895//43 893//43 894//43 
f 894//43 896//43 895//43 
f 897//44 895//44 896//44 
f 896//44 898//44 897//44 
f 899//45 897//45 898//45 
f 898//45 900//45 899//45 
f 901//46 899//46 900//46 
f 900//46 902//46 901//46 
f 903//96 904//96 905//96 
f 905//96 906//96 903//96 
f 906//95 905//95 907//95 
f 907//95 908//95 906//95 
f 908//94 907//94 909//94 
f 909//94 910//94 908//94 
f 910//93 909//93 911//93 
f 911//93 912//93 910//93 
f 912//92 911//92 913//92 
f 913//92 914//92 912//92 
f 914//91 913//91 915//91 
f 915//91 916//91 914//91 
f 916//90 915//90 917//90 
f 917//90 918//90 916//90 
f 918//89 917//89 919//89 
f 919//89 920//89 918//89 
f 921//46 901//46 902//46 
f 902//46 922//46 921//46 
f 923//98 921//98 922//98 
f 922//98 924//98 923//98 
f 925//44 923//44 924//44 
f 924//44 926//44 925//44 
f 927//43 925//43 926//43 
f 926//43 928//43 927//43 
f 929//39 927//39 928//39 
f 928//39 930//39 929//39 
f 931//97 929//97 930//97 
f 930//97 932//97 931//97 
f 933//41 931//41 932//41 
f 932//41 934//41 933//41 
f 919//42 933//42 934//42 
f 934//42 920//42 919//42 
f 935//46 904//46 903//46 
f 903//46 936//46 935//46 
f 937//98 935//98 936//98 
f 936//98 938//98 937//98 
f 939//44 937//44 938//44 
f 938//44 940//44 939//44 
f 941//43 939//43 940//43 
f 940//43 942//43 941//43 
f 943//39 941//39 942//39 
f 942//39 944//39 943//39 
f 945//97 943//97 944//97 
f 944//97 946//97 945//97 
f 947//41 945//41 946//41 
f 946//41 948//41 947//41 
f 886//42 947//42 948//42 
f 948//42 887//42 886//42 
f 920//10 902//10 900//10 
f 900//10 918//10 920//10 
f 918//10 900//10 898//10 
f 898//10 916//10 918//10 
f 916//10 898//10 896//10 
f 896//10 914//10 916//10 
f 914//10 896//10 894//10 
f 894//10 912//10 914//10 
f 912//10 894//10 892//10 
f 892//10 910//10 912//10 
f 910//10 892//10 890//10 
f 890//10 908//10 910//10 
f 908//10 890//10 888//10 
f 888//10 906//10 908//10 
f 906//10 888//10 887//10 
f 887//10 903//10 906//10 
f 922//10 902//10 949//10 
f 924//10 922//10 949//10 
f 926//10 924//10 949//10 
f 928//10 926//10 949//10 
f 930//10 928//10 949//10 
f 932//10 930//10 949//10 
f 934//10 932//10 949//10 
f 920//10 934//10 949//10 
f 936//10 903//10 950//10 
f 938//10 936//10 950//10 
f 940//10 938//10 950//10 
f 942//10 940//10 950//10 
f 944//10 942//10 950//10 
f 946//10 944//10 950//10 
f 948//10 946//10 950//10 
f 887//10 948//10 950//10 
# 1536 faces

