# 3ds Max Wavefront OBJ Exporter v0.97b - (c)2007 guruware
# File Created: 07.05.2020 01:38:29

mtllib columpio.mtl

#
# object Piece007
#

v  2209.7998 -58.6909 -0.0000
v  -2209.8003 -58.6909 -0.0000
v  -2209.8003 -50.9590 -38.8818
v  2209.7998 -50.9590 -38.8818
v  -2209.8003 -28.9321 -71.8408
v  2209.7998 -28.9321 -71.8408
v  -2209.8003 4.0269 -93.8682
v  2209.7998 4.0269 -93.8682
v  -2209.8003 42.9092 -101.5996
v  2209.7998 42.9092 -101.5996
v  -2209.8003 81.7920 -93.8682
v  2209.7998 81.7920 -93.8682
v  -2209.8003 114.7505 -71.8408
v  2209.7998 114.7505 -71.8408
v  -2209.8003 136.7773 -38.8818
v  2209.7998 136.7773 -38.8818
v  -2209.8003 144.5093 -0.0000
v  2209.7998 144.5093 -0.0000
v  -2209.8003 136.7773 38.8818
v  2209.7998 136.7773 38.8818
v  -2209.8003 114.7505 71.8418
v  2209.7998 114.7505 71.8418
v  -2209.8003 81.7920 93.8682
v  2209.7998 81.7920 93.8682
v  -2209.8003 42.9092 101.6006
v  2209.7998 42.9092 101.6006
v  -2209.8003 4.0269 93.8682
v  2209.7998 4.0269 93.8682
v  -2209.8003 -28.9321 71.8418
v  2209.7998 -28.9321 71.8418
v  -2209.8003 -50.9590 38.8818
v  2209.7998 -50.9590 38.8818
v  2248.6816 -50.9590 -0.0000
v  2254.4326 -36.7046 -44.6328
v  2254.4326 -1.7236 -79.6133
v  2248.6816 42.9092 -93.8682
v  2281.6416 -28.9321 -0.0000
v  2289.4141 -1.7236 -44.6328
v  2281.6416 42.9092 -71.8408
v  2303.6689 4.0269 -0.0000
v  2303.6689 42.9092 -38.8818
v  2311.3994 42.9092 -0.0000
v  2254.4326 -36.7046 44.6328
v  2254.4326 -1.7236 79.6143
v  2248.6816 42.9092 93.8682
v  2289.4141 -1.7236 44.6328
v  2281.6416 42.9092 71.8418
v  2303.6689 42.9092 38.8818
v  2248.6816 136.7773 -0.0000
v  2254.4326 122.5229 -44.6328
v  2254.4326 87.5420 -79.6133
v  2281.6416 114.7505 -0.0000
v  2289.4141 87.5420 -44.6328
v  2303.6689 81.7920 -0.0000
v  2254.4326 122.5229 44.6328
v  2254.4326 87.5420 79.6143
v  2289.4141 87.5420 44.6328
v  -2248.6821 -50.9590 -0.0000
v  -2254.4331 -36.7046 -44.6328
v  -2254.4331 -1.7236 -79.6133
v  -2248.6821 42.9092 -93.8682
v  -2281.6416 -28.9321 -0.0000
v  -2289.4141 -1.7236 -44.6328
v  -2281.6416 42.9092 -71.8408
v  -2303.6685 4.0269 -0.0000
v  -2303.6685 42.9092 -38.8818
v  -2311.3999 42.9092 -0.0000
v  -2254.4331 -36.7046 44.6328
v  -2254.4331 -1.7236 79.6143
v  -2248.6821 42.9092 93.8682
v  -2289.4141 -1.7236 44.6328
v  -2281.6416 42.9092 71.8418
v  -2303.6685 42.9092 38.8818
v  -2248.6821 136.7773 -0.0000
v  -2254.4331 122.5229 -44.6328
v  -2254.4331 87.5420 -79.6133
v  -2281.6416 114.7505 -0.0000
v  -2289.4141 87.5420 -44.6328
v  -2303.6685 81.7920 -0.0000
v  -2254.4331 122.5229 44.6328
v  -2254.4331 87.5420 79.6143
v  -2289.4141 87.5420 44.6328
v  1955.7998 42.9092 -101.5996
v  1955.7998 42.9092 -152.3994
v  1955.7998 101.2329 -140.8018
v  1955.7998 81.7920 -93.8682
v  1955.7998 150.6714 -107.7627
v  1955.7998 114.7505 -71.8408
v  1955.7998 183.7114 -58.3232
v  1955.7998 136.7773 -38.8818
v  1955.7998 195.3091 -0.0000
v  1955.7998 144.5093 -0.0000
v  1955.7998 183.7114 58.3242
v  1955.7998 136.7773 38.8818
v  1955.7998 150.6714 107.7627
v  1955.7998 114.7505 71.8418
v  1955.7998 101.2329 140.8027
v  1955.7998 81.7920 93.8682
v  1955.7998 42.9092 152.4004
v  1955.7998 42.9092 101.6006
v  1955.7998 -15.4141 140.8027
v  1955.7998 4.0269 93.8682
v  1955.7998 -64.8525 107.7627
v  1955.7998 -28.9321 71.8418
v  1955.7998 -97.8931 58.3242
v  1955.7998 -50.9590 38.8818
v  1955.7998 -109.4907 -0.0000
v  1955.7998 -58.6909 -0.0000
v  1955.7998 -97.8931 -58.3232
v  1955.7998 -50.9590 -38.8818
v  1955.7998 -64.8525 -107.7627
v  1955.7998 -28.9321 -71.8408
v  1955.7998 -15.4141 -140.8018
v  1955.7998 4.0269 -93.8682
v  -1955.8003 42.9092 101.6006
v  -1955.8003 42.9092 152.4004
v  -1955.8003 101.2329 140.8027
v  -1955.8003 81.7920 93.8682
v  -1955.8003 150.6714 107.7627
v  -1955.8003 114.7505 71.8418
v  -1955.8003 183.7114 58.3242
v  -1955.8003 136.7773 38.8818
v  -1955.8003 195.3091 -0.0000
v  -1955.8003 144.5093 -0.0000
v  -1955.8003 183.7114 -58.3232
v  -1955.8003 136.7773 -38.8818
v  -1955.8003 150.6714 -107.7627
v  -1955.8003 114.7505 -71.8408
v  -1955.8003 101.2329 -140.8018
v  -1955.8003 81.7920 -93.8682
v  -1955.8003 42.9092 -152.3994
v  -1955.8003 42.9092 -101.5996
v  -1955.8003 -15.4141 -140.8018
v  -1955.8003 4.0269 -93.8682
v  -1955.8003 -64.8525 -107.7627
v  -1955.8003 -28.9321 -71.8408
v  -1955.8003 -97.8931 -58.3232
v  -1955.8003 -50.9590 -38.8818
v  -1955.8003 -109.4907 -0.0000
v  -1955.8003 -58.6909 -0.0000
v  -1955.8003 -97.8931 58.3242
v  -1955.8003 -50.9590 38.8818
v  -1955.8003 -64.8525 107.7627
v  -1955.8003 -28.9321 71.8418
v  -1955.8003 -15.4141 140.8027
v  -1955.8003 4.0269 93.8682
v  1752.5996 -109.4907 -0.0000
v  1752.5996 -97.8931 -58.3232
v  1752.5996 -64.8525 -107.7627
v  1752.5996 -15.4141 -140.8018
v  1752.5996 42.9092 -152.3994
v  1752.5996 101.2329 -140.8018
v  1752.5996 150.6714 -107.7627
v  1752.5996 183.7114 -58.3232
v  1752.5996 195.3091 -0.0000
v  1752.5996 183.7114 58.3242
v  1752.5996 150.6714 107.7627
v  1752.5996 101.2329 140.8027
v  1752.5996 42.9092 152.4004
v  1752.5996 -15.4141 140.8027
v  1752.5996 -64.8525 107.7627
v  1752.5996 -97.8931 58.3242
v  -1752.6001 -97.8931 -58.3232
v  -1752.6001 -109.4907 -0.0000
v  -1752.6001 -64.8525 -107.7627
v  -1752.6001 -15.4141 -140.8018
v  -1752.6001 42.9092 -152.3994
v  -1752.6001 101.2329 -140.8018
v  -1752.6001 150.6714 -107.7627
v  -1752.6001 183.7114 -58.3232
v  -1752.6001 195.3091 -0.0000
v  -1752.6001 183.7114 58.3242
v  -1752.6001 150.6714 107.7627
v  -1752.6001 101.2329 140.8027
v  -1752.6001 42.9092 152.4004
v  -1752.6001 -15.4141 140.8027
v  -1752.6001 -64.8525 107.7627
v  -1752.6001 -97.8931 58.3242
v  1752.5996 42.9092 101.6006
v  1752.5996 81.7920 93.8682
v  1752.5996 114.7505 71.8418
v  1752.5996 136.7773 38.8818
v  1752.5996 144.5093 -0.0000
v  1752.5996 136.7773 -38.8818
v  1752.5996 114.7505 -71.8408
v  1752.5996 81.7920 -93.8682
v  1752.5996 42.9092 -101.5996
v  1752.5996 4.0269 -93.8682
v  1752.5996 -28.9321 -71.8408
v  1752.5996 -50.9590 -38.8818
v  1752.5996 -58.6909 -0.0000
v  1752.5996 -50.9590 38.8818
v  1752.5996 -28.9321 71.8418
v  1752.5996 4.0269 93.8682
v  -1752.6001 42.9092 -101.5996
v  -1752.6001 81.7920 -93.8682
v  -1752.6001 114.7505 -71.8408
v  -1752.6001 136.7773 -38.8818
v  -1752.6001 144.5093 -0.0000
v  -1752.6001 136.7773 38.8818
v  -1752.6001 114.7505 71.8418
v  -1752.6001 81.7920 93.8682
v  -1752.6001 42.9092 101.6006
v  -1752.6001 4.0269 93.8682
v  -1752.6001 -28.9321 71.8418
v  -1752.6001 -50.9590 38.8818
v  -1752.6001 -58.6909 -0.0000
v  -1752.6001 -50.9590 -38.8818
v  -1752.6001 -28.9321 -71.8408
v  -1752.6001 4.0269 -93.8682
v  1516.2676 -58.6909 -38.8818
v  1524.0000 -58.6909 -0.0000
v  1524.0000 -4427.4907 -0.0000
v  1516.2676 -4427.4907 -38.8818
v  1494.2412 -58.6909 -71.8408
v  1494.2412 -4427.4907 -71.8408
v  1461.2822 -58.6909 -93.8682
v  1461.2822 -4427.4907 -93.8682
v  1422.3994 -58.6909 -101.5996
v  1422.3994 -4427.4907 -101.5996
v  1383.5176 -58.6909 -93.8682
v  1383.5176 -4427.4907 -93.8682
v  1350.5586 -58.6909 -71.8408
v  1350.5586 -4427.4907 -71.8408
v  1328.5322 -58.6909 -38.8818
v  1328.5322 -4427.4907 -38.8818
v  1320.7998 -58.6909 -0.0000
v  1320.7998 -4427.4907 -0.0000
v  1328.5322 -58.6909 38.8818
v  1328.5322 -4427.4907 38.8818
v  1350.5586 -58.6909 71.8418
v  1350.5586 -4427.4907 71.8418
v  1383.5176 -58.6909 93.8682
v  1383.5176 -4427.4907 93.8682
v  1422.3994 -58.6909 101.6006
v  1422.3994 -4427.4907 101.6006
v  1461.2822 -58.6909 93.8682
v  1461.2822 -4427.4907 93.8682
v  1494.2412 -58.6909 71.8418
v  1494.2412 -4427.4907 71.8418
v  1516.2676 -58.6909 38.8818
v  1516.2676 -4427.4907 38.8818
v  -1524.0000 -4427.4907 -0.0000
v  -1524.0000 -58.6909 -0.0000
v  -1516.2686 -58.6909 -38.8818
v  -1516.2686 -4427.4907 -38.8818
v  -1494.2412 -58.6909 -71.8408
v  -1494.2412 -4427.4907 -71.8408
v  -1461.2822 -58.6909 -93.8682
v  -1461.2822 -4427.4907 -93.8682
v  -1422.3999 -58.6909 -101.5996
v  -1422.3999 -4427.4907 -101.5996
v  -1383.5181 -58.6909 -93.8682
v  -1383.5181 -4427.4907 -93.8682
v  -1350.5586 -58.6909 -71.8408
v  -1350.5586 -4427.4907 -71.8408
v  -1328.5317 -58.6909 -38.8818
v  -1328.5317 -4427.4907 -38.8818
v  -1320.8003 -58.6909 -0.0000
v  -1320.8003 -4427.4907 -0.0000
v  -1328.5317 -58.6909 38.8818
v  -1328.5317 -4427.4907 38.8818
v  -1350.5586 -58.6909 71.8418
v  -1350.5586 -4427.4907 71.8418
v  -1383.5181 -58.6909 93.8682
v  -1383.5181 -4427.4907 93.8682
v  -1422.3999 -58.6909 101.6006
v  -1422.3999 -4427.4907 101.6006
v  -1461.2822 -58.6909 93.8682
v  -1461.2822 -4427.4907 93.8682
v  -1494.2412 -58.6909 71.8418
v  -1494.2412 -4427.4907 71.8418
v  -1516.2686 -58.6909 38.8818
v  -1516.2686 -4427.4907 38.8818
v  1516.2676 -50.9590 -38.8818
v  1494.2412 -28.9321 -71.8408
v  1461.2822 4.0269 -93.8682
v  1422.3994 42.9092 -101.5996
v  1328.5322 -50.9590 -38.8818
v  1350.5586 -28.9321 -71.8408
v  1383.5176 4.0269 -93.8682
v  1516.2676 -50.9590 38.8818
v  1494.2412 -28.9321 71.8418
v  1461.2822 4.0269 93.8682
v  1422.3994 42.9092 101.6006
v  1328.5322 -50.9590 38.8818
v  1350.5586 -28.9321 71.8418
v  1383.5176 4.0269 93.8682
v  -1328.5317 -50.9590 -38.8818
v  -1350.5586 -28.9321 -71.8408
v  -1383.5181 4.0269 -93.8682
v  -1422.3999 42.9092 -101.5996
v  -1516.2686 -50.9590 -38.8818
v  -1494.2412 -28.9321 -71.8408
v  -1461.2822 4.0269 -93.8682
v  -1328.5317 -50.9590 38.8818
v  -1350.5586 -28.9321 71.8418
v  -1383.5181 4.0269 93.8682
v  -1422.3999 42.9092 101.6006
v  -1516.2686 -50.9590 38.8818
v  -1494.2412 -28.9321 71.8418
v  -1461.2822 4.0269 93.8682
v  -875.1978 -4630.6904 -58.3232
v  -863.6001 -4630.6904 -0.0000
v  -863.6001 -4529.0908 -0.0000
v  -875.1978 -4529.0908 -58.3232
v  -908.2383 -4630.6904 -107.7627
v  -908.2383 -4529.0908 -107.7627
v  -957.6768 -4630.6904 -140.8018
v  -957.6768 -4529.0908 -140.8018
v  -1016.0000 -4630.6904 -152.3994
v  -1016.0000 -4529.0908 -152.3994
v  -1074.3237 -4630.6904 -140.8018
v  -1074.3237 -4529.0908 -140.8018
v  -1123.7622 -4630.6904 -107.7627
v  -1123.7622 -4529.0908 -107.7627
v  -1156.8022 -4630.6904 -58.3232
v  -1156.8022 -4529.0908 -58.3232
v  -1168.3999 -4630.6904 -0.0000
v  -1168.3999 -4529.0908 -0.0000
v  -1156.8022 -4630.6904 58.3242
v  -1156.8022 -4529.0908 58.3242
v  -1123.7622 -4630.6904 107.7627
v  -1123.7622 -4529.0908 107.7627
v  -1074.3237 -4630.6904 140.8027
v  -1074.3237 -4529.0908 140.8027
v  -1016.0000 -4630.6904 152.4004
v  -1016.0000 -4529.0908 152.4004
v  -957.6768 -4630.6904 140.8027
v  -957.6768 -4529.0908 140.8027
v  -908.2383 -4630.6904 107.7627
v  -908.2383 -4529.0908 107.7627
v  -875.1978 -4630.6904 58.3242
v  -875.1978 -4529.0908 58.3242
v  -812.8003 -4529.0908 -0.0000
v  -812.8003 -4630.6904 -0.0000
v  -828.2637 -4630.6904 -77.7646
v  -828.2637 -4529.0908 -77.7646
v  -872.3174 -4630.6904 -143.6826
v  -872.3174 -4529.0908 -143.6826
v  -938.2354 -4630.6904 -187.7363
v  -938.2354 -4529.0908 -187.7363
v  -1016.0000 -4630.6904 -203.2002
v  -1016.0000 -4529.0908 -203.2002
v  -1093.7646 -4630.6904 -187.7363
v  -1093.7646 -4529.0908 -187.7363
v  -1159.6826 -4630.6904 -143.6826
v  -1159.6826 -4529.0908 -143.6826
v  -1203.7368 -4630.6904 -77.7646
v  -1203.7368 -4529.0908 -77.7646
v  -1219.2002 -4630.6904 -0.0000
v  -1219.2002 -4529.0908 -0.0000
v  -1203.7368 -4630.6904 77.7656
v  -1203.7368 -4529.0908 77.7656
v  -1159.6826 -4630.6904 143.6826
v  -1159.6826 -4529.0908 143.6826
v  -1093.7646 -4630.6904 187.7363
v  -1093.7646 -4529.0908 187.7363
v  -1016.0000 -4630.6904 203.2002
v  -1016.0000 -4529.0908 203.2002
v  -938.2354 -4630.6904 187.7363
v  -938.2354 -4529.0908 187.7363
v  -872.3174 -4630.6904 143.6826
v  -872.3174 -4529.0908 143.6826
v  -828.2637 -4630.6904 77.7656
v  -828.2637 -4529.0908 77.7656
v  -367.1978 -4630.6904 -58.3232
v  -355.6001 -4630.6904 -0.0000
v  -355.6001 -4529.0908 -0.0000
v  -367.1978 -4529.0908 -58.3232
v  -400.2378 -4630.6904 -107.7627
v  -400.2378 -4529.0908 -107.7627
v  -449.6768 -4630.6904 -140.8018
v  -449.6768 -4529.0908 -140.8018
v  -508.0000 -4630.6904 -152.3994
v  -508.0000 -4529.0908 -152.3994
v  -566.3237 -4630.6904 -140.8018
v  -566.3237 -4529.0908 -140.8018
v  -615.7627 -4630.6904 -107.7627
v  -615.7627 -4529.0908 -107.7627
v  -648.8022 -4630.6904 -58.3232
v  -648.8022 -4529.0908 -58.3232
v  -660.3999 -4630.6904 -0.0000
v  -660.3999 -4529.0908 -0.0000
v  -648.8022 -4630.6904 58.3242
v  -648.8022 -4529.0908 58.3242
v  -615.7627 -4630.6904 107.7627
v  -615.7627 -4529.0908 107.7627
v  -566.3237 -4630.6904 140.8027
v  -566.3237 -4529.0908 140.8027
v  -508.0000 -4630.6904 152.4004
v  -508.0000 -4529.0908 152.4004
v  -449.6768 -4630.6904 140.8027
v  -449.6768 -4529.0908 140.8027
v  -400.2378 -4630.6904 107.7627
v  -400.2378 -4529.0908 107.7627
v  -367.1978 -4630.6904 58.3242
v  -367.1978 -4529.0908 58.3242
v  -304.8003 -4529.0908 -0.0000
v  -304.8003 -4630.6904 -0.0000
v  -320.2637 -4630.6904 -77.7646
v  -320.2637 -4529.0908 -77.7646
v  -364.3174 -4630.6904 -143.6826
v  -364.3174 -4529.0908 -143.6826
v  -430.2358 -4630.6904 -187.7363
v  -430.2358 -4529.0908 -187.7363
v  -508.0000 -4630.6904 -203.2002
v  -508.0000 -4529.0908 -203.2002
v  -585.7642 -4630.6904 -187.7363
v  -585.7642 -4529.0908 -187.7363
v  -651.6826 -4630.6904 -143.6826
v  -651.6826 -4529.0908 -143.6826
v  -695.7368 -4630.6904 -77.7646
v  -695.7368 -4529.0908 -77.7646
v  -711.2002 -4630.6904 -0.0000
v  -711.2002 -4529.0908 -0.0000
v  -695.7368 -4630.6904 77.7656
v  -695.7368 -4529.0908 77.7656
v  -651.6826 -4630.6904 143.6826
v  -651.6826 -4529.0908 143.6826
v  -585.7642 -4630.6904 187.7363
v  -585.7642 -4529.0908 187.7363
v  -508.0000 -4630.6904 203.2002
v  -508.0000 -4529.0908 203.2002
v  -430.2358 -4630.6904 187.7363
v  -430.2358 -4529.0908 187.7363
v  -364.3174 -4630.6904 143.6826
v  -364.3174 -4529.0908 143.6826
v  -320.2637 -4630.6904 77.7656
v  -320.2637 -4529.0908 77.7656
v  140.8022 -4630.6904 -58.3232
v  152.3999 -4630.6904 -0.0000
v  152.3999 -4529.0908 -0.0000
v  140.8022 -4529.0908 -58.3232
v  107.7622 -4630.6904 -107.7627
v  107.7622 -4529.0908 -107.7627
v  58.3232 -4630.6904 -140.8018
v  58.3232 -4529.0908 -140.8018
v  0.0000 -4630.6904 -152.3994
v  0.0000 -4529.0908 -152.3994
v  -58.3237 -4630.6904 -140.8018
v  -58.3237 -4529.0908 -140.8018
v  -107.7627 -4630.6904 -107.7627
v  -107.7627 -4529.0908 -107.7627
v  -140.8022 -4630.6904 -58.3232
v  -140.8022 -4529.0908 -58.3232
v  -152.3999 -4630.6904 -0.0000
v  -152.3999 -4529.0908 -0.0000
v  -140.8022 -4630.6904 58.3242
v  -140.8022 -4529.0908 58.3242
v  -107.7627 -4630.6904 107.7627
v  -107.7627 -4529.0908 107.7627
v  -58.3237 -4630.6904 140.8027
v  -58.3237 -4529.0908 140.8027
v  0.0000 -4630.6904 152.4004
v  0.0000 -4529.0908 152.4004
v  58.3232 -4630.6904 140.8027
v  58.3232 -4529.0908 140.8027
v  107.7622 -4630.6904 107.7627
v  107.7622 -4529.0908 107.7627
v  140.8022 -4630.6904 58.3242
v  140.8022 -4529.0908 58.3242
v  203.1997 -4529.0908 -0.0000
v  203.1997 -4630.6904 -0.0000
v  187.7363 -4630.6904 -77.7646
v  187.7363 -4529.0908 -77.7646
v  143.6826 -4630.6904 -143.6826
v  143.6826 -4529.0908 -143.6826
v  77.7651 -4630.6904 -187.7363
v  77.7651 -4529.0908 -187.7363
v  0.0000 -4630.6904 -203.2002
v  0.0000 -4529.0908 -203.2002
v  -77.7651 -4630.6904 -187.7363
v  -77.7651 -4529.0908 -187.7363
v  -143.6826 -4630.6904 -143.6826
v  -143.6826 -4529.0908 -143.6826
v  -187.7368 -4630.6904 -77.7646
v  -187.7368 -4529.0908 -77.7646
v  -203.2002 -4630.6904 -0.0000
v  -203.2002 -4529.0908 -0.0000
v  -187.7368 -4630.6904 77.7656
v  -187.7368 -4529.0908 77.7656
v  -143.6826 -4630.6904 143.6826
v  -143.6826 -4529.0908 143.6826
v  -77.7651 -4630.6904 187.7363
v  -77.7651 -4529.0908 187.7363
v  0.0000 -4630.6904 203.2002
v  0.0000 -4529.0908 203.2002
v  77.7651 -4630.6904 187.7363
v  77.7651 -4529.0908 187.7363
v  143.6826 -4630.6904 143.6826
v  143.6826 -4529.0908 143.6826
v  187.7363 -4630.6904 77.7656
v  187.7363 -4529.0908 77.7656
v  648.8022 -4630.6904 -58.3232
v  660.3999 -4630.6904 -0.0000
v  660.3999 -4529.0908 -0.0000
v  648.8022 -4529.0908 -58.3232
v  615.7622 -4630.6904 -107.7627
v  615.7622 -4529.0908 -107.7627
v  566.3232 -4630.6904 -140.8018
v  566.3232 -4529.0908 -140.8018
v  508.0000 -4630.6904 -152.3994
v  508.0000 -4529.0908 -152.3994
v  449.6763 -4630.6904 -140.8018
v  449.6763 -4529.0908 -140.8018
v  400.2373 -4630.6904 -107.7627
v  400.2373 -4529.0908 -107.7627
v  367.1978 -4630.6904 -58.3232
v  367.1978 -4529.0908 -58.3232
v  355.6001 -4630.6904 -0.0000
v  355.6001 -4529.0908 -0.0000
v  367.1978 -4630.6904 58.3242
v  367.1978 -4529.0908 58.3242
v  400.2373 -4630.6904 107.7627
v  400.2373 -4529.0908 107.7627
v  449.6763 -4630.6904 140.8027
v  449.6763 -4529.0908 140.8027
v  508.0000 -4630.6904 152.4004
v  508.0000 -4529.0908 152.4004
v  566.3232 -4630.6904 140.8027
v  566.3232 -4529.0908 140.8027
v  615.7622 -4630.6904 107.7627
v  615.7622 -4529.0908 107.7627
v  648.8022 -4630.6904 58.3242
v  648.8022 -4529.0908 58.3242
v  711.1997 -4529.0908 -0.0000
v  711.1997 -4630.6904 -0.0000
v  695.7363 -4630.6904 -77.7646
v  695.7363 -4529.0908 -77.7646
v  651.6826 -4630.6904 -143.6826
v  651.6826 -4529.0908 -143.6826
v  585.7642 -4630.6904 -187.7363
v  585.7642 -4529.0908 -187.7363
v  508.0000 -4630.6904 -203.2002
v  508.0000 -4529.0908 -203.2002
v  430.2358 -4630.6904 -187.7363
v  430.2358 -4529.0908 -187.7363
v  364.3174 -4630.6904 -143.6826
v  364.3174 -4529.0908 -143.6826
v  320.2632 -4630.6904 -77.7646
v  320.2632 -4529.0908 -77.7646
v  304.7998 -4630.6904 -0.0000
v  304.7998 -4529.0908 -0.0000
v  320.2632 -4630.6904 77.7656
v  320.2632 -4529.0908 77.7656
v  364.3174 -4630.6904 143.6826
v  364.3174 -4529.0908 143.6826
v  430.2358 -4630.6904 187.7363
v  430.2358 -4529.0908 187.7363
v  508.0000 -4630.6904 203.2002
v  508.0000 -4529.0908 203.2002
v  585.7642 -4630.6904 187.7363
v  585.7642 -4529.0908 187.7363
v  651.6826 -4630.6904 143.6826
v  651.6826 -4529.0908 143.6826
v  695.7363 -4630.6904 77.7656
v  695.7363 -4529.0908 77.7656
v  1156.8018 -4630.6904 -58.3232
v  1168.3994 -4630.6904 -0.0000
v  1168.3994 -4529.0908 -0.0000
v  1156.8018 -4529.0908 -58.3232
v  1123.7627 -4630.6904 -107.7627
v  1123.7627 -4529.0908 -107.7627
v  1074.3232 -4630.6904 -140.8018
v  1074.3232 -4529.0908 -140.8018
v  1016.0000 -4630.6904 -152.3994
v  1016.0000 -4529.0908 -152.3994
v  957.6768 -4630.6904 -140.8018
v  957.6768 -4529.0908 -140.8018
v  908.2373 -4630.6904 -107.7627
v  908.2373 -4529.0908 -107.7627
v  875.1973 -4630.6904 -58.3232
v  875.1973 -4529.0908 -58.3232
v  863.5996 -4630.6904 -0.0000
v  863.5996 -4529.0908 -0.0000
v  875.1973 -4630.6904 58.3242
v  875.1973 -4529.0908 58.3242
v  908.2373 -4630.6904 107.7627
v  908.2373 -4529.0908 107.7627
v  957.6768 -4630.6904 140.8027
v  957.6768 -4529.0908 140.8027
v  1016.0000 -4630.6904 152.4004
v  1016.0000 -4529.0908 152.4004
v  1074.3232 -4630.6904 140.8027
v  1074.3232 -4529.0908 140.8027
v  1123.7627 -4630.6904 107.7627
v  1123.7627 -4529.0908 107.7627
v  1156.8018 -4630.6904 58.3242
v  1156.8018 -4529.0908 58.3242
v  1219.2002 -4529.0908 -0.0000
v  1219.2002 -4630.6904 -0.0000
v  1203.7363 -4630.6904 -77.7646
v  1203.7363 -4529.0908 -77.7646
v  1159.6826 -4630.6904 -143.6826
v  1159.6826 -4529.0908 -143.6826
v  1093.7637 -4630.6904 -187.7363
v  1093.7637 -4529.0908 -187.7363
v  1016.0000 -4630.6904 -203.2002
v  1016.0000 -4529.0908 -203.2002
v  938.2354 -4630.6904 -187.7363
v  938.2354 -4529.0908 -187.7363
v  872.3174 -4630.6904 -143.6826
v  872.3174 -4529.0908 -143.6826
v  828.2637 -4630.6904 -77.7646
v  828.2637 -4529.0908 -77.7646
v  812.7998 -4630.6904 -0.0000
v  812.7998 -4529.0908 -0.0000
v  828.2637 -4630.6904 77.7656
v  828.2637 -4529.0908 77.7656
v  872.3174 -4630.6904 143.6826
v  872.3174 -4529.0908 143.6826
v  938.2354 -4630.6904 187.7363
v  938.2354 -4529.0908 187.7363
v  1016.0000 -4630.6904 203.2002
v  1016.0000 -4529.0908 203.2002
v  1093.7637 -4630.6904 187.7363
v  1093.7637 -4529.0908 187.7363
v  1159.6826 -4630.6904 143.6826
v  1159.6826 -4529.0908 143.6826
v  1203.7363 -4630.6904 77.7656
v  1203.7363 -4529.0908 77.7656
v  1422.3994 -4529.0908 406.4004
v  -1422.3999 -4529.0908 406.4004
v  -1422.3999 -4529.0908 -406.3994
v  1422.3994 -4529.0908 -406.3994
v  1422.3994 -4630.6904 -406.3994
v  -1422.3999 -4630.6904 -406.3994
v  -1422.3999 -4630.6904 406.4004
v  1422.3994 -4630.6904 406.4004
v  -1524.0000 -4630.6904 -508.0000
v  1524.0000 -4630.6904 -508.0000
v  1524.0000 -4630.6904 508.0000
v  -1524.0000 -4630.6904 508.0000
v  -1524.0000 -4427.4907 -508.0000
v  -1524.0000 -4427.4907 508.0000
v  1524.0000 -4427.4907 508.0000
v  1524.0000 -4427.4907 -508.0000
# 638 vertices

vn 0.0000 -0.9808 -0.1950
vn 0.0000 -0.8314 -0.5556
vn 0.0000 -0.5557 -0.8314
vn 0.0000 -0.1950 -0.9808
vn 0.0000 0.1950 -0.9808
vn 0.0000 0.5557 -0.8314
vn 0.0000 0.8314 -0.5556
vn 0.0000 0.9808 -0.1950
vn 0.0000 0.9808 0.1950
vn 0.0000 0.8314 0.5556
vn 0.0000 0.5556 0.8314
vn 0.0000 0.1950 0.9808
vn 0.0000 -0.1950 0.9808
vn 0.0000 -0.5556 0.8314
vn 0.0000 -0.8314 0.5556
vn 0.0000 -0.9808 0.1950
vn 0.1914 -0.9627 -0.1914
vn 0.2627 -0.9284 -0.2627
vn 0.1904 -0.8162 -0.5455
vn 0.2943 -0.6758 -0.6758
vn 0.1904 -0.5455 -0.8162
vn 0.2627 -0.2627 -0.9284
vn 0.1914 -0.1914 -0.9627
vn 0.5455 -0.8162 -0.1904
vn 0.6758 -0.6758 -0.2943
vn 0.5773 -0.5774 -0.5774
vn 0.6758 -0.2943 -0.6758
vn 0.5455 -0.1904 -0.8162
vn 0.8162 -0.5455 -0.1904
vn 0.9284 -0.2627 -0.2627
vn 0.8162 -0.1904 -0.5455
vn 0.9627 -0.1914 -0.1914
vn 0.1914 -0.9627 0.1914
vn 0.2627 -0.9284 0.2627
vn 0.1904 -0.8162 0.5455
vn 0.2943 -0.6758 0.6758
vn 0.1904 -0.5455 0.8162
vn 0.2627 -0.2627 0.9284
vn 0.1914 -0.1914 0.9627
vn 0.5455 -0.8162 0.1904
vn 0.6758 -0.6758 0.2943
vn 0.5773 -0.5774 0.5773
vn 0.6758 -0.2943 0.6758
vn 0.5455 -0.1904 0.8162
vn 0.8162 -0.5455 0.1904
vn 0.9284 -0.2627 0.2627
vn 0.8162 -0.1904 0.5455
vn 0.9627 -0.1914 0.1914
vn 0.1914 0.9627 -0.1914
vn 0.2627 0.9284 -0.2627
vn 0.1904 0.8162 -0.5455
vn 0.2943 0.6758 -0.6758
vn 0.1904 0.5455 -0.8162
vn 0.2627 0.2627 -0.9284
vn 0.1914 0.1914 -0.9627
vn 0.5455 0.8162 -0.1904
vn 0.6758 0.6758 -0.2943
vn 0.5773 0.5774 -0.5774
vn 0.6758 0.2943 -0.6758
vn 0.5455 0.1904 -0.8162
vn 0.8162 0.5455 -0.1904
vn 0.9284 0.2627 -0.2627
vn 0.8162 0.1904 -0.5455
vn 0.9627 0.1914 -0.1914
vn 0.1914 0.9627 0.1914
vn 0.2627 0.9284 0.2627
vn 0.1904 0.8162 0.5455
vn 0.2943 0.6758 0.6758
vn 0.1904 0.5455 0.8162
vn 0.2627 0.2627 0.9284
vn 0.1914 0.1914 0.9627
vn 0.5455 0.8162 0.1904
vn 0.6758 0.6758 0.2943
vn 0.5773 0.5774 0.5773
vn 0.6758 0.2943 0.6758
vn 0.5455 0.1904 0.8162
vn 0.8162 0.5455 0.1904
vn 0.9284 0.2627 0.2627
vn 0.8162 0.1904 0.5455
vn 0.9627 0.1914 0.1914
vn -0.1914 -0.9627 -0.1914
vn -0.2627 -0.9284 -0.2627
vn -0.1904 -0.8162 -0.5455
vn -0.2943 -0.6758 -0.6758
vn -0.1904 -0.5455 -0.8162
vn -0.2627 -0.2627 -0.9284
vn -0.1914 -0.1914 -0.9627
vn -0.5455 -0.8162 -0.1904
vn -0.6758 -0.6758 -0.2943
vn -0.5773 -0.5773 -0.5774
vn -0.6758 -0.2943 -0.6758
vn -0.5455 -0.1904 -0.8162
vn -0.8162 -0.5455 -0.1904
vn -0.9284 -0.2627 -0.2627
vn -0.8162 -0.1904 -0.5455
vn -0.9627 -0.1914 -0.1914
vn -0.1914 -0.9627 0.1914
vn -0.2627 -0.9284 0.2627
vn -0.1904 -0.8162 0.5455
vn -0.2943 -0.6758 0.6758
vn -0.1904 -0.5455 0.8162
vn -0.2627 -0.2627 0.9284
vn -0.1914 -0.1914 0.9627
vn -0.5455 -0.8162 0.1904
vn -0.6758 -0.6758 0.2943
vn -0.5774 -0.5774 0.5773
vn -0.6758 -0.2943 0.6758
vn -0.5455 -0.1904 0.8162
vn -0.8162 -0.5455 0.1904
vn -0.9284 -0.2627 0.2627
vn -0.8162 -0.1904 0.5455
vn -0.9627 -0.1914 0.1914
vn -0.1914 0.9627 -0.1914
vn -0.2627 0.9284 -0.2627
vn -0.1904 0.8162 -0.5455
vn -0.2943 0.6758 -0.6758
vn -0.1904 0.5455 -0.8162
vn -0.2627 0.2627 -0.9284
vn -0.1914 0.1914 -0.9627
vn -0.5455 0.8162 -0.1904
vn -0.6758 0.6758 -0.2943
vn -0.5773 0.5773 -0.5774
vn -0.6758 0.2943 -0.6758
vn -0.5455 0.1904 -0.8162
vn -0.8162 0.5455 -0.1904
vn -0.9284 0.2627 -0.2627
vn -0.8162 0.1904 -0.5455
vn -0.9627 0.1914 -0.1914
vn -0.1914 0.9627 0.1914
vn -0.2627 0.9284 0.2627
vn -0.1904 0.8162 0.5455
vn -0.2943 0.6758 0.6758
vn -0.1904 0.5455 0.8162
vn -0.2627 0.2627 0.9284
vn -0.1914 0.1914 0.9627
vn -0.5455 0.8162 0.1904
vn -0.6758 0.6758 0.2943
vn -0.5774 0.5774 0.5773
vn -0.6758 0.2943 0.6758
vn -0.5455 0.1904 0.8162
vn -0.8162 0.5455 0.1904
vn -0.9284 0.2627 0.2627
vn -0.8162 0.1904 0.5455
vn -0.9627 0.1914 0.1914
vn 1.0000 0.0000 -0.0000
vn -1.0000 0.0000 -0.0000
vn 0.0000 -0.5556 -0.8314
vn 0.0000 0.5556 -0.8314
vn 0.9808 0.0000 -0.1951
vn 0.8314 0.0000 -0.5556
vn 0.5557 0.0000 -0.8314
vn 0.1950 0.0000 -0.9808
vn -0.1950 0.0000 -0.9808
vn -0.5557 0.0000 -0.8314
vn -0.8314 0.0000 -0.5556
vn -0.9808 0.0000 -0.1951
vn -0.9808 0.0000 0.1951
vn -0.8314 0.0000 0.5556
vn -0.5556 0.0000 0.8314
vn -0.1951 0.0000 0.9808
vn 0.1950 0.0000 0.9808
vn 0.5556 0.0000 0.8314
vn 0.8314 0.0000 0.5556
vn 0.9808 0.0000 0.1951
vn -0.9808 0.0000 -0.1950
vn -0.8314 0.0000 -0.5557
vn 0.5556 0.0000 -0.8314
vn 0.9808 0.0000 -0.1950
vn 0.9808 0.0000 0.1950
vn 0.1951 0.0000 0.9808
vn -0.1950 0.0000 0.9808
vn -0.9808 0.0000 0.1950
vn -0.5556 0.0000 -0.8314
vn -0.8314 0.0000 0.5557
vn 0.8314 0.0000 0.5557
vn 0.0000 -1.0000 -0.0000
vn 0.0000 0.0000 1.0000
vn 0.0000 0.0000 -1.0000
vn 0.0000 1.0000 -0.0000
# 179 vertex normals

o Piece007
g Piece007
usemtl Material__1166
s off
f 1//1 2//1 3//1 
f 3//1 4//1 1//1 
f 4//2 3//2 5//2 
f 5//2 6//2 4//2 
f 6//3 5//3 7//3 
f 7//3 8//3 6//3 
f 8//4 7//4 9//4 
f 9//4 10//4 8//4 
f 10//5 9//5 11//5 
f 11//5 12//5 10//5 
f 12//6 11//6 13//6 
f 13//6 14//6 12//6 
f 14//7 13//7 15//7 
f 15//7 16//7 14//7 
f 16//8 15//8 17//8 
f 17//8 18//8 16//8 
f 18//9 17//9 19//9 
f 19//9 20//9 18//9 
f 20//10 19//10 21//10 
f 21//10 22//10 20//10 
f 22//11 21//11 23//11 
f 23//11 24//11 22//11 
f 24//12 23//12 25//12 
f 25//12 26//12 24//12 
f 26//13 25//13 27//13 
f 27//13 28//13 26//13 
f 28//14 27//14 29//14 
f 29//14 30//14 28//14 
f 30//15 29//15 31//15 
f 31//15 32//15 30//15 
f 32//16 31//16 2//16 
f 2//16 1//16 32//16 
f 4//17 33//17 1//17 
f 4//18 34//18 33//18 
f 6//19 34//19 4//19 
f 6//20 35//20 34//20 
f 8//21 35//21 6//21 
f 8//22 36//22 35//22 
f 10//23 36//23 8//23 
f 34//24 37//24 33//24 
f 34//25 38//25 37//25 
f 35//26 38//26 34//26 
f 35//27 39//27 38//27 
f 36//28 39//28 35//28 
f 38//29 40//29 37//29 
f 38//30 41//30 40//30 
f 39//31 41//31 38//31 
f 41//32 42//32 40//32 
f 1//33 33//33 32//33 
f 33//34 43//34 32//34 
f 32//35 43//35 30//35 
f 43//36 44//36 30//36 
f 30//37 44//37 28//37 
f 44//38 45//38 28//38 
f 28//39 45//39 26//39 
f 33//40 37//40 43//40 
f 37//41 46//41 43//41 
f 43//42 46//42 44//42 
f 46//43 47//43 44//43 
f 44//44 47//44 45//44 
f 37//45 40//45 46//45 
f 40//46 48//46 46//46 
f 46//47 48//47 47//47 
f 40//48 42//48 48//48 
f 18//49 49//49 16//49 
f 49//50 50//50 16//50 
f 16//51 50//51 14//51 
f 50//52 51//52 14//52 
f 14//53 51//53 12//53 
f 51//54 36//54 12//54 
f 12//55 36//55 10//55 
f 49//56 52//56 50//56 
f 52//57 53//57 50//57 
f 50//58 53//58 51//58 
f 53//59 39//59 51//59 
f 51//60 39//60 36//60 
f 52//61 54//61 53//61 
f 54//62 41//62 53//62 
f 53//63 41//63 39//63 
f 54//64 42//64 41//64 
f 20//65 49//65 18//65 
f 20//66 55//66 49//66 
f 22//67 55//67 20//67 
f 22//68 56//68 55//68 
f 24//69 56//69 22//69 
f 24//70 45//70 56//70 
f 26//71 45//71 24//71 
f 55//72 52//72 49//72 
f 55//73 57//73 52//73 
f 56//74 57//74 55//74 
f 56//75 47//75 57//75 
f 45//76 47//76 56//76 
f 57//77 54//77 52//77 
f 57//78 48//78 54//78 
f 47//79 48//79 57//79 
f 48//80 42//80 54//80 
f 2//81 58//81 3//81 
f 58//82 59//82 3//82 
f 3//83 59//83 5//83 
f 59//84 60//84 5//84 
f 5//85 60//85 7//85 
f 60//86 61//86 7//86 
f 7//87 61//87 9//87 
f 58//88 62//88 59//88 
f 62//89 63//89 59//89 
f 59//90 63//90 60//90 
f 63//91 64//91 60//91 
f 60//92 64//92 61//92 
f 62//93 65//93 63//93 
f 65//94 66//94 63//94 
f 63//95 66//95 64//95 
f 65//96 67//96 66//96 
f 31//97 58//97 2//97 
f 31//98 68//98 58//98 
f 29//99 68//99 31//99 
f 29//100 69//100 68//100 
f 27//101 69//101 29//101 
f 27//102 70//102 69//102 
f 25//103 70//103 27//103 
f 68//104 62//104 58//104 
f 68//105 71//105 62//105 
f 69//106 71//106 68//106 
f 69//107 72//107 71//107 
f 70//108 72//108 69//108 
f 71//109 65//109 62//109 
f 71//110 73//110 65//110 
f 72//111 73//111 71//111 
f 73//112 67//112 65//112 
f 15//113 74//113 17//113 
f 15//114 75//114 74//114 
f 13//115 75//115 15//115 
f 13//116 76//116 75//116 
f 11//117 76//117 13//117 
f 11//118 61//118 76//118 
f 9//119 61//119 11//119 
f 75//120 77//120 74//120 
f 75//121 78//121 77//121 
f 76//122 78//122 75//122 
f 76//123 64//123 78//123 
f 61//124 64//124 76//124 
f 78//125 79//125 77//125 
f 78//126 66//126 79//126 
f 64//127 66//127 78//127 
f 66//128 67//128 79//128 
f 17//129 74//129 19//129 
f 74//130 80//130 19//130 
f 19//131 80//131 21//131 
f 80//132 81//132 21//132 
f 21//133 81//133 23//133 
f 81//134 70//134 23//134 
f 23//135 70//135 25//135 
f 74//136 77//136 80//136 
f 77//137 82//137 80//137 
f 80//138 82//138 81//138 
f 82//139 72//139 81//139 
f 81//140 72//140 70//140 
f 77//141 79//141 82//141 
f 79//142 73//142 82//142 
f 82//143 73//143 72//143 
f 79//144 67//144 73//144 
f 83//145 84//145 85//145 
f 85//145 86//145 83//145 
f 86//145 85//145 87//145 
f 87//145 88//145 86//145 
f 88//145 87//145 89//145 
f 89//145 90//145 88//145 
f 90//145 89//145 91//145 
f 91//145 92//145 90//145 
f 92//145 91//145 93//145 
f 93//145 94//145 92//145 
f 94//145 93//145 95//145 
f 95//145 96//145 94//145 
f 96//145 95//145 97//145 
f 97//145 98//145 96//145 
f 98//145 97//145 99//145 
f 99//145 100//145 98//145 
f 100//145 99//145 101//145 
f 101//145 102//145 100//145 
f 102//145 101//145 103//145 
f 103//145 104//145 102//145 
f 104//145 103//145 105//145 
f 105//145 106//145 104//145 
f 106//145 105//145 107//145 
f 107//145 108//145 106//145 
f 108//145 107//145 109//145 
f 109//145 110//145 108//145 
f 110//145 109//145 111//145 
f 111//145 112//145 110//145 
f 112//145 111//145 113//145 
f 113//145 114//145 112//145 
f 114//145 113//145 84//145 
f 84//145 83//145 114//145 
f 115//146 116//146 117//146 
f 117//146 118//146 115//146 
f 118//146 117//146 119//146 
f 119//146 120//146 118//146 
f 120//146 119//146 121//146 
f 121//146 122//146 120//146 
f 122//146 121//146 123//146 
f 123//146 124//146 122//146 
f 124//146 123//146 125//146 
f 125//146 126//146 124//146 
f 126//146 125//146 127//146 
f 127//146 128//146 126//146 
f 128//146 127//146 129//146 
f 129//146 130//146 128//146 
f 130//146 129//146 131//146 
f 131//146 132//146 130//146 
f 132//146 131//146 133//146 
f 133//146 134//146 132//146 
f 134//146 133//146 135//146 
f 135//146 136//146 134//146 
f 136//146 135//146 137//146 
f 137//146 138//146 136//146 
f 138//146 137//146 139//146 
f 139//146 140//146 138//146 
f 140//146 139//146 141//146 
f 141//146 142//146 140//146 
f 142//146 141//146 143//146 
f 143//146 144//146 142//146 
f 144//146 143//146 145//146 
f 145//146 146//146 144//146 
f 146//146 145//146 116//146 
f 116//146 115//146 146//146 
f 107//1 147//1 148//1 
f 148//1 109//1 107//1 
f 109//2 148//2 149//2 
f 149//2 111//2 109//2 
f 111//147 149//147 150//147 
f 150//147 113//147 111//147 
f 113//4 150//4 151//4 
f 151//4 84//4 113//4 
f 84//5 151//5 152//5 
f 152//5 85//5 84//5 
f 85//148 152//148 153//148 
f 153//148 87//148 85//148 
f 87//7 153//7 154//7 
f 154//7 89//7 87//7 
f 89//8 154//8 155//8 
f 155//8 91//8 89//8 
f 91//9 155//9 156//9 
f 156//9 93//9 91//9 
f 93//10 156//10 157//10 
f 157//10 95//10 93//10 
f 95//11 157//11 158//11 
f 158//11 97//11 95//11 
f 97//12 158//12 159//12 
f 159//12 99//12 97//12 
f 99//13 159//13 160//13 
f 160//13 101//13 99//13 
f 101//14 160//14 161//14 
f 161//14 103//14 101//14 
f 103//15 161//15 162//15 
f 162//15 105//15 103//15 
f 105//16 162//16 147//16 
f 147//16 107//16 105//16 
f 163//1 164//1 139//1 
f 139//1 137//1 163//1 
f 165//2 163//2 137//2 
f 137//2 135//2 165//2 
f 166//147 165//147 135//147 
f 135//147 133//147 166//147 
f 167//4 166//4 133//4 
f 133//4 131//4 167//4 
f 168//5 167//5 131//5 
f 131//5 129//5 168//5 
f 169//148 168//148 129//148 
f 129//148 127//148 169//148 
f 170//7 169//7 127//7 
f 127//7 125//7 170//7 
f 171//8 170//8 125//8 
f 125//8 123//8 171//8 
f 172//9 171//9 123//9 
f 123//9 121//9 172//9 
f 173//10 172//10 121//10 
f 121//10 119//10 173//10 
f 174//11 173//11 119//11 
f 119//11 117//11 174//11 
f 175//12 174//12 117//12 
f 117//12 116//12 175//12 
f 176//13 175//13 116//13 
f 116//13 145//13 176//13 
f 177//14 176//14 145//14 
f 145//14 143//14 177//14 
f 178//15 177//15 143//15 
f 143//15 141//15 178//15 
f 164//16 178//16 141//16 
f 141//16 139//16 164//16 
f 179//146 159//146 158//146 
f 158//146 180//146 179//146 
f 180//146 158//146 157//146 
f 157//146 181//146 180//146 
f 181//146 157//146 156//146 
f 156//146 182//146 181//146 
f 182//146 156//146 155//146 
f 155//146 183//146 182//146 
f 183//146 155//146 154//146 
f 154//146 184//146 183//146 
f 184//146 154//146 153//146 
f 153//146 185//146 184//146 
f 185//146 153//146 152//146 
f 152//146 186//146 185//146 
f 186//146 152//146 151//146 
f 151//146 187//146 186//146 
f 187//146 151//146 150//146 
f 150//146 188//146 187//146 
f 188//146 150//146 149//146 
f 149//146 189//146 188//146 
f 189//146 149//146 148//146 
f 148//146 190//146 189//146 
f 190//146 148//146 147//146 
f 147//146 191//146 190//146 
f 191//146 147//146 162//146 
f 162//146 192//146 191//146 
f 192//146 162//146 161//146 
f 161//146 193//146 192//146 
f 193//146 161//146 160//146 
f 160//146 194//146 193//146 
f 194//146 160//146 159//146 
f 159//146 179//146 194//146 
f 195//145 167//145 168//145 
f 168//145 196//145 195//145 
f 196//145 168//145 169//145 
f 169//145 197//145 196//145 
f 197//145 169//145 170//145 
f 170//145 198//145 197//145 
f 198//145 170//145 171//145 
f 171//145 199//145 198//145 
f 199//145 171//145 172//145 
f 172//145 200//145 199//145 
f 200//145 172//145 173//145 
f 173//145 201//145 200//145 
f 201//145 173//145 174//145 
f 174//145 202//145 201//145 
f 202//145 174//145 175//145 
f 175//145 203//145 202//145 
f 203//145 175//145 176//145 
f 176//145 204//145 203//145 
f 204//145 176//145 177//145 
f 177//145 205//145 204//145 
f 205//145 177//145 178//145 
f 178//145 206//145 205//145 
f 206//145 178//145 164//145 
f 164//145 207//145 206//145 
f 207//145 164//145 163//145 
f 163//145 208//145 207//145 
f 208//145 163//145 165//145 
f 165//145 209//145 208//145 
f 209//145 165//145 166//145 
f 166//145 210//145 209//145 
f 210//145 166//145 167//145 
f 167//145 195//145 210//145 
f 211//149 212//149 213//149 
f 213//149 214//149 211//149 
f 215//150 211//150 214//150 
f 214//150 216//150 215//150 
f 217//151 215//151 216//151 
f 216//151 218//151 217//151 
f 219//152 217//152 218//152 
f 218//152 220//152 219//152 
f 221//153 219//153 220//153 
f 220//153 222//153 221//153 
f 223//154 221//154 222//154 
f 222//154 224//154 223//154 
f 225//155 223//155 224//155 
f 224//155 226//155 225//155 
f 227//156 225//156 226//156 
f 226//156 228//156 227//156 
f 229//157 227//157 228//157 
f 228//157 230//157 229//157 
f 231//158 229//158 230//158 
f 230//158 232//158 231//158 
f 233//159 231//159 232//159 
f 232//159 234//159 233//159 
f 235//160 233//160 234//160 
f 234//160 236//160 235//160 
f 237//161 235//161 236//161 
f 236//161 238//161 237//161 
f 239//162 237//162 238//162 
f 238//162 240//162 239//162 
f 241//163 239//163 240//163 
f 240//163 242//163 241//163 
f 212//164 241//164 242//164 
f 242//164 213//164 212//164 
f 243//165 244//165 245//165 
f 245//165 246//165 243//165 
f 246//166 245//166 247//166 
f 247//166 248//166 246//166 
f 248//154 247//154 249//154 
f 249//154 250//154 248//154 
f 250//153 249//153 251//153 
f 251//153 252//153 250//153 
f 252//152 251//152 253//152 
f 253//152 254//152 252//152 
f 254//167 253//167 255//167 
f 255//167 256//167 254//167 
f 256//150 255//150 257//150 
f 257//150 258//150 256//150 
f 258//168 257//168 259//168 
f 259//168 260//168 258//168 
f 260//169 259//169 261//169 
f 261//169 262//169 260//169 
f 262//163 261//163 263//163 
f 263//163 264//163 262//163 
f 264//162 263//162 265//162 
f 265//162 266//162 264//162 
f 266//170 265//170 267//170 
f 267//170 268//170 266//170 
f 268//171 267//171 269//171 
f 269//171 270//171 268//171 
f 270//159 269//159 271//159 
f 271//159 272//159 270//159 
f 272//158 271//158 273//158 
f 273//158 274//158 272//158 
f 274//172 273//172 244//172 
f 244//172 243//172 274//172 
f 212//149 211//149 275//149 
f 275//150 211//150 215//150 
f 215//150 276//150 275//150 
f 276//151 215//151 217//151 
f 217//151 277//151 276//151 
f 277//152 217//152 219//152 
f 219//152 278//152 277//152 
f 279//156 225//156 227//156 
f 223//155 225//155 279//155 
f 279//155 280//155 223//155 
f 221//154 223//154 280//154 
f 280//154 281//154 221//154 
f 219//153 221//153 281//153 
f 281//153 278//153 219//153 
f 282//164 241//164 212//164 
f 239//163 241//163 282//163 
f 282//163 283//163 239//163 
f 237//162 239//162 283//162 
f 283//162 284//162 237//162 
f 235//161 237//161 284//161 
f 284//161 285//161 235//161 
f 227//157 229//157 286//157 
f 286//158 229//158 231//158 
f 231//158 287//158 286//158 
f 287//159 231//159 233//159 
f 233//159 288//159 287//159 
f 288//160 233//160 235//160 
f 235//160 285//160 288//160 
f 259//168 257//168 289//168 
f 289//150 257//150 255//150 
f 255//150 290//150 289//150 
f 290//167 255//167 253//167 
f 253//167 291//167 290//167 
f 291//152 253//152 251//152 
f 251//152 292//152 291//152 
f 293//165 245//165 244//165 
f 247//166 245//166 293//166 
f 293//166 294//166 247//166 
f 249//154 247//154 294//154 
f 294//154 295//154 249//154 
f 251//153 249//153 295//153 
f 295//153 292//153 251//153 
f 296//169 261//169 259//169 
f 263//163 261//163 296//163 
f 296//163 297//163 263//163 
f 265//162 263//162 297//162 
f 297//162 298//162 265//162 
f 267//170 265//170 298//170 
f 298//170 299//170 267//170 
f 244//172 273//172 300//172 
f 300//158 273//158 271//158 
f 271//158 301//158 300//158 
f 301//159 271//159 269//159 
f 269//159 302//159 301//159 
f 302//171 269//171 267//171 
f 267//171 299//171 302//171 
f 303//172 304//172 305//172 
f 305//172 306//172 303//172 
f 307//158 303//158 306//158 
f 306//158 308//158 307//158 
f 309//159 307//159 308//159 
f 308//159 310//159 309//159 
f 311//171 309//171 310//171 
f 310//171 312//171 311//171 
f 313//161 311//161 312//161 
f 312//161 314//161 313//161 
f 315//162 313//162 314//162 
f 314//162 316//162 315//162 
f 317//163 315//163 316//163 
f 316//163 318//163 317//163 
f 319//169 317//169 318//169 
f 318//169 320//169 319//169 
f 321//168 319//168 320//168 
f 320//168 322//168 321//168 
f 323//150 321//150 322//150 
f 322//150 324//150 323//150 
f 325//167 323//167 324//167 
f 324//167 326//167 325//167 
f 327//152 325//152 326//152 
f 326//152 328//152 327//152 
f 329//153 327//153 328//153 
f 328//153 330//153 329//153 
f 331//173 329//173 330//173 
f 330//173 332//173 331//173 
f 333//155 331//155 332//155 
f 332//155 334//155 333//155 
f 304//165 333//165 334//165 
f 334//165 305//165 304//165 
f 335//168 336//168 337//168 
f 337//168 338//168 335//168 
f 338//150 337//150 339//150 
f 339//150 340//150 338//150 
f 340//167 339//167 341//167 
f 341//167 342//167 340//167 
f 342//152 341//152 343//152 
f 343//152 344//152 342//152 
f 344//153 343//153 345//153 
f 345//153 346//153 344//153 
f 346//173 345//173 347//173 
f 347//173 348//173 346//173 
f 348//166 347//166 349//166 
f 349//166 350//166 348//166 
f 350//165 349//165 351//165 
f 351//165 352//165 350//165 
f 352//172 351//172 353//172 
f 353//172 354//172 352//172 
f 354//174 353//174 355//174 
f 355//174 356//174 354//174 
f 356//159 355//159 357//159 
f 357//159 358//159 356//159 
f 358//171 357//171 359//171 
f 359//171 360//171 358//171 
f 360//161 359//161 361//161 
f 361//161 362//161 360//161 
f 362//162 361//162 363//162 
f 363//162 364//162 362//162 
f 364//175 363//175 365//175 
f 365//175 366//175 364//175 
f 366//169 365//169 336//169 
f 336//169 335//169 366//169 
f 345//176 343//176 311//176 
f 311//176 313//176 345//176 
f 347//176 345//176 313//176 
f 313//176 315//176 347//176 
f 349//176 347//176 315//176 
f 315//176 317//176 349//176 
f 351//176 349//176 317//176 
f 317//176 319//176 351//176 
f 353//176 351//176 319//176 
f 319//176 321//176 353//176 
f 355//176 353//176 321//176 
f 321//176 323//176 355//176 
f 357//176 355//176 323//176 
f 323//176 325//176 357//176 
f 359//176 357//176 325//176 
f 325//176 327//176 359//176 
f 361//176 359//176 327//176 
f 327//176 329//176 361//176 
f 363//176 361//176 329//176 
f 329//176 331//176 363//176 
f 365//176 363//176 331//176 
f 331//176 333//176 365//176 
f 336//176 365//176 333//176 
f 333//176 304//176 336//176 
f 337//176 336//176 304//176 
f 304//176 303//176 337//176 
f 339//176 337//176 303//176 
f 303//176 307//176 339//176 
f 341//176 339//176 307//176 
f 307//176 309//176 341//176 
f 343//176 341//176 309//176 
f 309//176 311//176 343//176 
f 367//172 368//172 369//172 
f 369//172 370//172 367//172 
f 371//158 367//158 370//158 
f 370//158 372//158 371//158 
f 373//159 371//159 372//159 
f 372//159 374//159 373//159 
f 375//171 373//171 374//171 
f 374//171 376//171 375//171 
f 377//161 375//161 376//161 
f 376//161 378//161 377//161 
f 379//162 377//162 378//162 
f 378//162 380//162 379//162 
f 381//163 379//163 380//163 
f 380//163 382//163 381//163 
f 383//169 381//169 382//169 
f 382//169 384//169 383//169 
f 385//168 383//168 384//168 
f 384//168 386//168 385//168 
f 387//150 385//150 386//150 
f 386//150 388//150 387//150 
f 389//167 387//167 388//167 
f 388//167 390//167 389//167 
f 391//152 389//152 390//152 
f 390//152 392//152 391//152 
f 393//153 391//153 392//153 
f 392//153 394//153 393//153 
f 395//173 393//173 394//173 
f 394//173 396//173 395//173 
f 397//155 395//155 396//155 
f 396//155 398//155 397//155 
f 368//165 397//165 398//165 
f 398//165 369//165 368//165 
f 399//168 400//168 401//168 
f 401//168 402//168 399//168 
f 402//150 401//150 403//150 
f 403//150 404//150 402//150 
f 404//167 403//167 405//167 
f 405//167 406//167 404//167 
f 406//152 405//152 407//152 
f 407//152 408//152 406//152 
f 408//153 407//153 409//153 
f 409//153 410//153 408//153 
f 410//173 409//173 411//173 
f 411//173 412//173 410//173 
f 412//166 411//166 413//166 
f 413//166 414//166 412//166 
f 414//165 413//165 415//165 
f 415//165 416//165 414//165 
f 416//172 415//172 417//172 
f 417//172 418//172 416//172 
f 418//174 417//174 419//174 
f 419//174 420//174 418//174 
f 420//159 419//159 421//159 
f 421//159 422//159 420//159 
f 422//171 421//171 423//171 
f 423//171 424//171 422//171 
f 424//161 423//161 425//161 
f 425//161 426//161 424//161 
f 426//162 425//162 427//162 
f 427//162 428//162 426//162 
f 428//175 427//175 429//175 
f 429//175 430//175 428//175 
f 430//169 429//169 400//169 
f 400//169 399//169 430//169 
f 409//176 407//176 375//176 
f 375//176 377//176 409//176 
f 411//176 409//176 377//176 
f 377//176 379//176 411//176 
f 413//176 411//176 379//176 
f 379//176 381//176 413//176 
f 415//176 413//176 381//176 
f 381//176 383//176 415//176 
f 417//176 415//176 383//176 
f 383//176 385//176 417//176 
f 419//176 417//176 385//176 
f 385//176 387//176 419//176 
f 421//176 419//176 387//176 
f 387//176 389//176 421//176 
f 423//176 421//176 389//176 
f 389//176 391//176 423//176 
f 425//176 423//176 391//176 
f 391//176 393//176 425//176 
f 427//176 425//176 393//176 
f 393//176 395//176 427//176 
f 429//176 427//176 395//176 
f 395//176 397//176 429//176 
f 400//176 429//176 397//176 
f 397//176 368//176 400//176 
f 401//176 400//176 368//176 
f 368//176 367//176 401//176 
f 403//176 401//176 367//176 
f 367//176 371//176 403//176 
f 405//176 403//176 371//176 
f 371//176 373//176 405//176 
f 407//176 405//176 373//176 
f 373//176 375//176 407//176 
f 431//172 432//172 433//172 
f 433//172 434//172 431//172 
f 435//158 431//158 434//158 
f 434//158 436//158 435//158 
f 437//159 435//159 436//159 
f 436//159 438//159 437//159 
f 439//171 437//171 438//171 
f 438//171 440//171 439//171 
f 441//161 439//161 440//161 
f 440//161 442//161 441//161 
f 443//162 441//162 442//162 
f 442//162 444//162 443//162 
f 445//163 443//163 444//163 
f 444//163 446//163 445//163 
f 447//169 445//169 446//169 
f 446//169 448//169 447//169 
f 449//168 447//168 448//168 
f 448//168 450//168 449//168 
f 451//150 449//150 450//150 
f 450//150 452//150 451//150 
f 453//167 451//167 452//167 
f 452//167 454//167 453//167 
f 455//152 453//152 454//152 
f 454//152 456//152 455//152 
f 457//153 455//153 456//153 
f 456//153 458//153 457//153 
f 459//173 457//173 458//173 
f 458//173 460//173 459//173 
f 461//155 459//155 460//155 
f 460//155 462//155 461//155 
f 432//165 461//165 462//165 
f 462//165 433//165 432//165 
f 463//168 464//168 465//168 
f 465//168 466//168 463//168 
f 466//150 465//150 467//150 
f 467//150 468//150 466//150 
f 468//167 467//167 469//167 
f 469//167 470//167 468//167 
f 470//152 469//152 471//152 
f 471//152 472//152 470//152 
f 472//153 471//153 473//153 
f 473//153 474//153 472//153 
f 474//173 473//173 475//173 
f 475//173 476//173 474//173 
f 476//166 475//166 477//166 
f 477//166 478//166 476//166 
f 478//165 477//165 479//165 
f 479//165 480//165 478//165 
f 480//172 479//172 481//172 
f 481//172 482//172 480//172 
f 482//174 481//174 483//174 
f 483//174 484//174 482//174 
f 484//159 483//159 485//159 
f 485//159 486//159 484//159 
f 486//171 485//171 487//171 
f 487//171 488//171 486//171 
f 488//161 487//161 489//161 
f 489//161 490//161 488//161 
f 490//162 489//162 491//162 
f 491//162 492//162 490//162 
f 492//175 491//175 493//175 
f 493//175 494//175 492//175 
f 494//169 493//169 464//169 
f 464//169 463//169 494//169 
f 473//176 471//176 439//176 
f 439//176 441//176 473//176 
f 475//176 473//176 441//176 
f 441//176 443//176 475//176 
f 477//176 475//176 443//176 
f 443//176 445//176 477//176 
f 479//176 477//176 445//176 
f 445//176 447//176 479//176 
f 481//176 479//176 447//176 
f 447//176 449//176 481//176 
f 483//176 481//176 449//176 
f 449//176 451//176 483//176 
f 485//176 483//176 451//176 
f 451//176 453//176 485//176 
f 487//176 485//176 453//176 
f 453//176 455//176 487//176 
f 489//176 487//176 455//176 
f 455//176 457//176 489//176 
f 491//176 489//176 457//176 
f 457//176 459//176 491//176 
f 493//176 491//176 459//176 
f 459//176 461//176 493//176 
f 464//176 493//176 461//176 
f 461//176 432//176 464//176 
f 465//176 464//176 432//176 
f 432//176 431//176 465//176 
f 467//176 465//176 431//176 
f 431//176 435//176 467//176 
f 469//176 467//176 435//176 
f 435//176 437//176 469//176 
f 471//176 469//176 437//176 
f 437//176 439//176 471//176 
f 495//172 496//172 497//172 
f 497//172 498//172 495//172 
f 499//158 495//158 498//158 
f 498//158 500//158 499//158 
f 501//159 499//159 500//159 
f 500//159 502//159 501//159 
f 503//171 501//171 502//171 
f 502//171 504//171 503//171 
f 505//161 503//161 504//161 
f 504//161 506//161 505//161 
f 507//162 505//162 506//162 
f 506//162 508//162 507//162 
f 509//163 507//163 508//163 
f 508//163 510//163 509//163 
f 511//169 509//169 510//169 
f 510//169 512//169 511//169 
f 513//168 511//168 512//168 
f 512//168 514//168 513//168 
f 515//150 513//150 514//150 
f 514//150 516//150 515//150 
f 517//167 515//167 516//167 
f 516//167 518//167 517//167 
f 519//152 517//152 518//152 
f 518//152 520//152 519//152 
f 521//153 519//153 520//153 
f 520//153 522//153 521//153 
f 523//173 521//173 522//173 
f 522//173 524//173 523//173 
f 525//155 523//155 524//155 
f 524//155 526//155 525//155 
f 496//165 525//165 526//165 
f 526//165 497//165 496//165 
f 527//168 528//168 529//168 
f 529//168 530//168 527//168 
f 530//150 529//150 531//150 
f 531//150 532//150 530//150 
f 532//167 531//167 533//167 
f 533//167 534//167 532//167 
f 534//152 533//152 535//152 
f 535//152 536//152 534//152 
f 536//153 535//153 537//153 
f 537//153 538//153 536//153 
f 538//173 537//173 539//173 
f 539//173 540//173 538//173 
f 540//166 539//166 541//166 
f 541//166 542//166 540//166 
f 542//165 541//165 543//165 
f 543//165 544//165 542//165 
f 544//172 543//172 545//172 
f 545//172 546//172 544//172 
f 546//174 545//174 547//174 
f 547//174 548//174 546//174 
f 548//159 547//159 549//159 
f 549//159 550//159 548//159 
f 550//171 549//171 551//171 
f 551//171 552//171 550//171 
f 552//161 551//161 553//161 
f 553//161 554//161 552//161 
f 554//162 553//162 555//162 
f 555//162 556//162 554//162 
f 556//175 555//175 557//175 
f 557//175 558//175 556//175 
f 558//169 557//169 528//169 
f 528//169 527//169 558//169 
f 537//176 535//176 503//176 
f 503//176 505//176 537//176 
f 539//176 537//176 505//176 
f 505//176 507//176 539//176 
f 541//176 539//176 507//176 
f 507//176 509//176 541//176 
f 543//176 541//176 509//176 
f 509//176 511//176 543//176 
f 545//176 543//176 511//176 
f 511//176 513//176 545//176 
f 547//176 545//176 513//176 
f 513//176 515//176 547//176 
f 549//176 547//176 515//176 
f 515//176 517//176 549//176 
f 551//176 549//176 517//176 
f 517//176 519//176 551//176 
f 553//176 551//176 519//176 
f 519//176 521//176 553//176 
f 555//176 553//176 521//176 
f 521//176 523//176 555//176 
f 557//176 555//176 523//176 
f 523//176 525//176 557//176 
f 528//176 557//176 525//176 
f 525//176 496//176 528//176 
f 529//176 528//176 496//176 
f 496//176 495//176 529//176 
f 531//176 529//176 495//176 
f 495//176 499//176 531//176 
f 533//176 531//176 499//176 
f 499//176 501//176 533//176 
f 535//176 533//176 501//176 
f 501//176 503//176 535//176 
f 559//172 560//172 561//172 
f 561//172 562//172 559//172 
f 563//158 559//158 562//158 
f 562//158 564//158 563//158 
f 565//159 563//159 564//159 
f 564//159 566//159 565//159 
f 567//171 565//171 566//171 
f 566//171 568//171 567//171 
f 569//161 567//161 568//161 
f 568//161 570//161 569//161 
f 571//162 569//162 570//162 
f 570//162 572//162 571//162 
f 573//163 571//163 572//163 
f 572//163 574//163 573//163 
f 575//169 573//169 574//169 
f 574//169 576//169 575//169 
f 577//168 575//168 576//168 
f 576//168 578//168 577//168 
f 579//150 577//150 578//150 
f 578//150 580//150 579//150 
f 581//167 579//167 580//167 
f 580//167 582//167 581//167 
f 583//152 581//152 582//152 
f 582//152 584//152 583//152 
f 585//153 583//153 584//153 
f 584//153 586//153 585//153 
f 587//173 585//173 586//173 
f 586//173 588//173 587//173 
f 589//155 587//155 588//155 
f 588//155 590//155 589//155 
f 560//165 589//165 590//165 
f 590//165 561//165 560//165 
f 591//168 592//168 593//168 
f 593//168 594//168 591//168 
f 594//150 593//150 595//150 
f 595//150 596//150 594//150 
f 596//167 595//167 597//167 
f 597//167 598//167 596//167 
f 598//152 597//152 599//152 
f 599//152 600//152 598//152 
f 600//153 599//153 601//153 
f 601//153 602//153 600//153 
f 602//173 601//173 603//173 
f 603//173 604//173 602//173 
f 604//155 603//155 605//155 
f 605//155 606//155 604//155 
f 606//165 605//165 607//165 
f 607//165 608//165 606//165 
f 608//172 607//172 609//172 
f 609//172 610//172 608//172 
f 610//174 609//174 611//174 
f 611//174 612//174 610//174 
f 612//159 611//159 613//159 
f 613//159 614//159 612//159 
f 614//171 613//171 615//171 
f 615//171 616//171 614//171 
f 616//161 615//161 617//161 
f 617//161 618//161 616//161 
f 618//162 617//162 619//162 
f 619//162 620//162 618//162 
f 620//175 619//175 621//175 
f 621//175 622//175 620//175 
f 622//169 621//169 592//169 
f 592//169 591//169 622//169 
f 601//176 599//176 567//176 
f 567//176 569//176 601//176 
f 603//176 601//176 569//176 
f 569//176 571//176 603//176 
f 605//176 603//176 571//176 
f 571//176 573//176 605//176 
f 607//176 605//176 573//176 
f 573//176 575//176 607//176 
f 609//176 607//176 575//176 
f 575//176 577//176 609//176 
f 611//176 609//176 577//176 
f 577//176 579//176 611//176 
f 613//176 611//176 579//176 
f 579//176 581//176 613//176 
f 615//176 613//176 581//176 
f 581//176 583//176 615//176 
f 617//176 615//176 583//176 
f 583//176 585//176 617//176 
f 619//176 617//176 585//176 
f 585//176 587//176 619//176 
f 621//176 619//176 587//176 
f 587//176 589//176 621//176 
f 592//176 621//176 589//176 
f 589//176 560//176 592//176 
f 593//176 592//176 560//176 
f 560//176 559//176 593//176 
f 595//176 593//176 559//176 
f 559//176 563//176 595//176 
f 597//176 595//176 563//176 
f 563//176 565//176 597//176 
f 599//176 597//176 565//176 
f 565//176 567//176 599//176 
f 623//176 624//176 625//176 
f 625//176 626//176 623//176 
f 627//177 626//177 625//177 
f 625//177 628//177 627//177 
f 628//145 625//145 624//145 
f 624//145 629//145 628//145 
f 629//178 624//178 623//178 
f 623//178 630//178 629//178 
f 630//146 623//146 626//146 
f 626//146 627//146 630//146 
f 627//176 628//176 631//176 
f 631//176 632//176 627//176 
f 629//176 630//176 633//176 
f 633//176 634//176 629//176 
f 628//176 629//176 634//176 
f 634//176 631//176 628//176 
f 630//176 627//176 632//176 
f 632//176 633//176 630//176 
f 635//179 636//179 637//179 
f 637//179 638//179 635//179 
f 635//178 638//178 632//178 
f 632//178 631//178 635//178 
f 636//146 635//146 631//146 
f 631//146 634//146 636//146 
f 637//177 636//177 634//177 
f 634//177 633//177 637//177 
f 638//145 637//145 633//145 
f 633//145 632//145 638//145 
# 980 faces

