# 3ds Max Wavefront OBJ Exporter v0.97b - (c)2007 guruware
# File Created: 02.05.2020 23:58:34

newmtl Material__27
	Ns 10.0000
	Ni 1.5000
	d 1.0000
	Tr 0.0000
	Tf 1.0000 1.0000 1.0000 
	illum 2
	Ka 0.5880 0.5880 0.5880
	Kd 0.5880 0.5880 0.5880
	Ks 0.0000 0.0000 0.0000
	Ke 0.0000 0.0000 0.0000
	map_Ka gris2_tren.jpg
	map_Kd gris2_tren.jpg

newmtl Material__26
	Ns 10.0000
	Ni 1.5000
	d 1.0000
	Tr 0.0000
	Tf 1.0000 1.0000 1.0000 
	illum 2
	Ka 0.5880 0.5880 0.5880
	Kd 0.5880 0.5880 0.5880
	Ks 0.0000 0.0000 0.0000
	Ke 0.0000 0.0000 0.0000
	map_Ka gris1_tren.jpg
	map_Kd gris1_tren.jpg

newmtl Material__28
	Ns 10.0000
	Ni 1.5000
	d 1.0000
	Tr 0.0000
	Tf 1.0000 1.0000 1.0000 
	illum 2
	Ka 0.5880 0.5880 0.5880
	Kd 0.5880 0.5880 0.5880
	Ks 0.0000 0.0000 0.0000
	Ke 0.0000 0.0000 0.0000
	map_Ka azul1_tren.jpg
	map_Kd azul1_tren.jpg

newmtl Material__25
	Ns 10.0000
	Ni 1.5000
	d 1.0000
	Tr 0.0000
	Tf 1.0000 1.0000 1.0000 
	illum 2
	Ka 0.5880 0.5880 0.5880
	Kd 0.5880 0.5880 0.5880
	Ks 0.0000 0.0000 0.0000
	Ke 0.0000 0.0000 0.0000
	map_Ka negro_tren.jpg
	map_Kd negro_tren.jpg

newmtl Material001
	Ns 25.0000
	Ni 1.5000
	d 1.0000
	Tr 0.0000
	Tf 1.0000 1.0000 1.0000 
	illum 2
	Ka 0.0000 0.3333 0.7490
	Kd 0.0000 0.3333 0.7490
	Ks 0.0449 0.0449 0.0449
	Ke 0.0000 0.0000 0.0000

newmtl Material__29
	Ns 10.0000
	Ni 1.5000
	d 1.0000
	Tr 0.0000
	Tf 1.0000 1.0000 1.0000 
	illum 2
	Ka 0.5880 0.5880 0.5880
	Kd 0.5880 0.5880 0.5880
	Ks 0.0000 0.0000 0.0000
	Ke 0.0000 0.0000 0.0000
	map_Ka azul2_tren.jpg
	map_Kd azul2_tren.jpg

newmtl Material__30
	Ns 10.0000
	Ni 1.5000
	d 1.0000
	Tr 0.0000
	Tf 1.0000 1.0000 1.0000 
	illum 2
	Ka 0.5880 0.5880 0.5880
	Kd 0.5880 0.5880 0.5880
	Ks 0.0000 0.0000 0.0000
	Ke 0.0000 0.0000 0.0000
	map_Ka azul3_tren.jpg
	map_Kd azul3_tren.jpg

newmtl Material056
	Ns 25.0000
	Ni 1.5000
	d 1.0000
	Tr 0.0000
	Tf 1.0000 1.0000 1.0000 
	illum 2
	Ka 0.0510 0.1961 0.3569
	Kd 0.0510 0.1961 0.3569
	Ks 0.0449 0.0449 0.0449
	Ke 0.0000 0.0000 0.0000

newmtl Material054
	Ns 25.0000
	Ni 1.5000
	d 1.0000
	Tr 0.0000
	Tf 1.0000 1.0000 1.0000 
	illum 2
	Ka 1.0000 0.9412 0.2275
	Kd 1.0000 0.9412 0.2275
	Ks 0.0449 0.0449 0.0449
	Ke 0.0000 0.0000 0.0000

newmtl Material032
	Ns 25.0000
	Ni 1.5000
	d 1.0000
	Tr 0.0000
	Tf 1.0000 1.0000 1.0000 
	illum 2
	Ka 0.6275 0.6471 0.6627
	Kd 0.6275 0.6471 0.6627
	Ks 0.0449 0.0449 0.0449
	Ke 0.0000 0.0000 0.0000

newmtl Material055
	Ns 25.0000
	Ni 1.5000
	d 1.0000
	Tr 0.0000
	Tf 1.0000 1.0000 1.0000 
	illum 2
	Ka 0.3373 0.7451 0.8392
	Kd 0.3373 0.7451 0.8392
	Ks 0.0449 0.0449 0.0449
	Ke 0.0000 0.0000 0.0000

newmtl Material__32
	Ns 10.0000
	Ni 1.5000
	d 1.0000
	Tr 0.0000
	Tf 1.0000 1.0000 1.0000 
	illum 2
	Ka 0.5880 0.5880 0.5880
	Kd 0.5880 0.5880 0.5880
	Ks 0.0000 0.0000 0.0000
	Ke 0.0000 0.0000 0.0000
	map_Ka amarillo_tren.jpg
	map_Kd amarillo_tren.jpg

newmtl Material__31
	Ns 10.0000
	Ni 1.5000
	d 1.0000
	Tr 0.0000
	Tf 1.0000 1.0000 1.0000 
	illum 2
	Ka 0.5880 0.5880 0.5880
	Kd 0.5880 0.5880 0.5880
	Ks 0.0000 0.0000 0.0000
	Ke 0.0000 0.0000 0.0000
	map_Ka piel_tren.jpg
	map_Kd piel_tren.jpg

newmtl Material033
	Ns 25.0000
	Ni 1.5000
	d 1.0000
	Tr 0.0000
	Tf 1.0000 1.0000 1.0000 
	illum 2
	Ka 0.4235 0.4314 0.4078
	Kd 0.4235 0.4314 0.4078
	Ks 0.0449 0.0449 0.0449
	Ke 0.0000 0.0000 0.0000

newmtl Material000
	Ns 25.0000
	Ni 1.5000
	d 1.0000
	Tr 0.0000
	Tf 1.0000 1.0000 1.0000 
	illum 2
	Ka 0.0196 0.0745 0.1137
	Kd 0.0196 0.0745 0.1137
	Ks 0.0449 0.0449 0.0449
	Ke 0.0000 0.0000 0.0000

newmtl Material018
	Ns 25.0000
	Ni 1.5000
	d 1.0000
	Tr 0.0000
	Tf 1.0000 1.0000 1.0000 
	illum 2
	Ka 0.8941 0.8039 0.6196
	Kd 0.8941 0.8039 0.6196
	Ks 0.0449 0.0449 0.0449
	Ke 0.0000 0.0000 0.0000
