# 3ds Max Wavefront OBJ Exporter v0.97b - (c)2007 guruware
# File Created: 28.04.2020 02:58:53

newmtl Material__26
	Ns 10.0000
	Ni 1.5000
	d 1.0000
	Tr 0.0000
	Tf 1.0000 1.0000 1.0000 
	illum 2
	Ka 0.6941 0.5725 0.4980
	Kd 0.6941 0.5725 0.4980
	Ks 0.0000 0.0000 0.0000
	Ke 0.0000 0.0000 0.0000
	map_Ka charly_face.jpg
	map_Kd charly_face.jpg

newmtl Material__27
	Ns 10.0000
	Ni 1.5000
	d 1.0000
	Tr 0.0000
	Tf 1.0000 1.0000 1.0000 
	illum 2
	Ka 0.5880 0.5880 0.5880
	Kd 0.5880 0.5880 0.5880
	Ks 0.0000 0.0000 0.0000
	Ke 0.0000 0.0000 0.0000
	map_Ka charly_torzo.jpg
	map_Kd charly_torzo.jpg

newmtl Material__28
	Ns 10.0000
	Ni 1.5000
	d 1.0000
	Tr 0.0000
	Tf 1.0000 1.0000 1.0000 
	illum 2
	Ka 0.0039 0.0039 0.0039
	Kd 0.0039 0.0039 0.0039
	Ks 0.0000 0.0000 0.0000
	Ke 0.0000 0.0000 0.0000
	map_Ka pantalon_charly.jpg
	map_Kd pantalon_charly.jpg

newmtl Material__25
	Ns 10.0000
	Ni 1.5000
	d 1.0000
	Tr 0.0000
	Tf 1.0000 1.0000 1.0000 
	illum 2
	Ka 0.6941 0.5725 0.4980
	Kd 0.6941 0.5725 0.4980
	Ks 0.0000 0.0000 0.0000
	Ke 0.0000 0.0000 0.0000
	map_Ka manos.jpg
	map_Kd manos.jpg

newmtl Material__30
	Ns 10.0000
	Ni 1.5000
	d 1.0000
	Tr 0.0000
	Tf 1.0000 1.0000 1.0000 
	illum 2
	Ka 0.7882 0.5843 0.0118
	Kd 0.7882 0.5843 0.0118
	Ks 0.0000 0.0000 0.0000
	Ke 0.0000 0.0000 0.0000
	map_Ka mangas_charly.jpg
	map_Kd mangas_charly.jpg
