# 3ds Max Wavefront OBJ Exporter v0.97b - (c)2007 guruware
# File Created: 26.04.2020 19:37:39

newmtl material_0
	Ns 0.0000
	Ni 1.5000
	d 1.0000
	Tr 0.0000
	Tf 1.0000 1.0000 1.0000 
	illum 2
	Ka 0.2000 0.2000 0.2000
	Kd 0.6431 0.6980 0.7333
	Ks 0.0000 0.0000 0.0000
	Ke 0.0000 0.0000 0.0000

newmtl imitation_gold_leaf_pack_432_300x300_1
	Ns 0.0000
	Ni 1.5000
	d 1.0000
	Tr 0.0000
	Tf 1.0000 1.0000 1.0000 
	illum 2
	Ka 0.2000 0.2000 0.2000
	Kd 0.8000 0.8000 0.8000
	Ks 0.0000 0.0000 0.0000
	Ke 0.0000 0.0000 0.0000
	map_Ka imitation-gold-leaf-pack-432-300x300_1.jpg
	map_Kd imitation-gold-leaf-pack-432-300x300_1.jpg

newmtl Translucent_Glass_Tan
	Ns 0.0000
	Ni 1.5000
	d 0.5020
	Tr 0.4980
	Tf 0.5020 0.5020 0.5020 
	illum 2
	Ka 0.2000 0.2000 0.2000
	Kd 0.8196 0.7020 0.5490
	Ks 0.0000 0.0000 0.0000
	Ke 0.0000 0.0000 0.0000

newmtl __Gray8_
	Ns 0.0000
	Ni 1.5000
	d 1.0000
	Tr 0.0000
	Tf 1.0000 1.0000 1.0000 
	illum 2
	Ka 0.2000 0.2000 0.2000
	Kd 0.8000 0.8000 0.8000
	Ks 0.0000 0.0000 0.0000
	Ke 0.0000 0.0000 0.0000
	
newmtl _0040_Peru
	Ns 0.0000
	Ni 1.5000
	d 1.0000
	Tr 0.0000
	Tf 1.0000 1.0000 1.0000 
	illum 2
	Ka 0.2000 0.2000 0.2000
	Kd 0.8039 0.5216 0.2471
	Ks 0.0000 0.0000 0.0000
	Ke 0.0000 0.0000 0.0000

newmtl _0052_FloralWhite
	Ns 0.0000
	Ni 1.5000
	d 1.0000
	Tr 0.0000
	Tf 1.0000 1.0000 1.0000 
	illum 2
	Ka 0.2000 0.2000 0.2000
	Kd 1.0000 0.9765 0.9373
	Ks 0.0000 0.0000 0.0000
	Ke 0.0000 0.0000 0.0000

newmtl material
	Ns 0.0000
	Ni 1.5000
	d 1.0000
	Tr 0.0000
	Tf 1.0000 1.0000 1.0000 
	illum 2
	Ka 0.2000 0.2000 0.2000
	Kd 1.0000 1.0000 1.0000
	Ks 0.0000 0.0000 0.0000
	Ke 0.0000 0.0000 0.0000

newmtl material_4
	Ns 0.0000
	Ni 1.5000
	d 1.0000
	Tr 0.0000
	Tf 1.0000 1.0000 1.0000 
	illum 2
	Ka 0.2000 0.2000 0.2000
	Kd 0.8000 0.8000 0.8000
	Ks 0.0000 0.0000 0.0000
	Ke 0.0000 0.0000 0.0000
	map_Ka material_4.jpg
	map_Kd material_4.jpg

newmtl imitation_gold_leaf_pack_432_300x300_1_1
	Ns 0.0000
	Ni 1.5000
	d 1.0000
	Tr 0.0000
	Tf 1.0000 1.0000 1.0000 
	illum 2
	Ka 0.2000 0.2000 0.2000
	Kd 0.8000 0.8000 0.8000
	Ks 0.0000 0.0000 0.0000
	Ke 0.0000 0.0000 0.0000
	map_Ka imitation-gold-leaf-pack-432-300x300_1.jpg
	map_Kd imitation-gold-leaf-pack-432-300x300_1.jpg

newmtl 0052_FloralWhite
	Ns 10.0000
	Ni 1.5000
	d 1.0000
	Tr 0.0000
	Tf 1.0000 1.0000 1.0000 
	illum 2
	Ka 0.5880 0.5880 0.5880
	Kd 1.0000 0.9765 0.9373
	Ks 0.0000 0.0000 0.0000
	Ke 0.0000 0.0000 0.0000

newmtl skp_front_default
	Ns 10.0000
	Ni 1.5000
	d 1.0000
	Tr 0.0000
	Tf 1.0000 1.0000 1.0000 
	illum 2
	Ka 0.5880 0.5880 0.5880
	Kd 1.0000 1.0000 1.0000
	Ks 0.0000 0.0000 0.0000
	Ke 0.0000 0.0000 0.0000

newmtl Material4
	Ns 10.0000
	Ni 1.5000
	d 1.0000
	Tr 0.0000
	Tf 1.0000 1.0000 1.0000 
	illum 2
	Ka 0.5880 0.5880 0.5880
	Kd 1.0000 1.0000 1.0000
	Ks 0.0000 0.0000 0.0000
	Ke 0.0000 0.0000 0.0000